test_run_dir/Task1_test/lab7task1.vcd
$date
2021-09-29T17:13+0000
$end
$version
0.2
$end
$comment

$end
$timescale 1ns  $end
$scope module lab7task1 $end
 $var wire 1 ! io_f2 $end
 $var wire 3 " _GEN_22 $end
 $var wire 4 # cat $end
 $var wire 3 $ _GEN_16 $end
 $var wire 3 % io_out $end
 $var wire 3 & _GEN_2 $end
 $var wire 3 ' _GEN_10 $end
 $var wire 1 ( _T $end
 $var wire 3 ) _GEN_31 $end
 $var wire 3 * _GEN_25 $end
 $var wire 3 + _GEN_8 $end
 $var wire 3 , _GEN_24 $end
 $var wire 3 - _GEN_30 $end
 $var wire 3 . _GEN_27 $end
 $var wire 3 / state $end
 $var wire 3 0 _GEN_12 $end
 $var wire 1 1 io_f1 $end
 $var wire 3 2 _GEN_18 $end
 $var wire 3 3 _GEN_4 $end
 $var wire 1 4 clock $end
 $var wire 1 5 io_r2 $end
 $var wire 3 6 _GEN_26 $end
 $var wire 3 7 _GEN_32 $end
 $var wire 3 8 _GEN_20 $end
 $var wire 3 9 _GEN_29 $end
 $var wire 3 : _GEN_6 $end
 $var wire 3 ; _GEN_14 $end
 $var wire 3 < _GEN_0 $end
 $var wire 1 = reset $end
 $var wire 1 > io_r1 $end
 $var wire 3 ? _GEN_28 $end
$upscope $end
$enddefinitions $end
$dumpvars
b000 2
b000 *
b000 3
b000 +
0=
b000 ,
0>
0!
b000 -
b0000 #
b000 .
b000 &
b000 '
b000 )
b000 ?
04
b000 "
b000 8
05
b000 9
b000 $
b000 :
b000 %
b000 ;
b000 <
0(
01
b000 6
b000 7
b000 /
b000 0
$end
#0
b010 0
b101 8
b101 2
b010 '
b100 $
1=
b001 :
b001 +
1(
b100 ;
#1
14
#6
b001 3
b011 0
04
11
b001 &
b1000 #
0=
b010 +
b001 7
#11
b001 ?
b010 -
14
b001 "
b001 6
0(
b010 7
b001 /
b001 ,
#16
04
#21
b011 ?
b011 -
b011 %
14
b010 "
b011 9
b010 6
b011 7
b010 /
b010 ,
b011 )
#26
04
#31
b000 ?
b000 -
b000 %
14
b011 "
b000 9
b000 6
b000 7
b011 /
b011 ,
b000 )
#36
1!
b010 0
b101 3
b101 <
04
01
b100 8
b0100 #
b101 &
b011 $
b001 +
#41
14
b000 "
1(
b101 7
b000 /
b000 ,
#46
04
#51
b100 ?
b100 -
14
b100 "
b100 6
0(
b100 7
b101 /
b100 ,
#56
b000 3
b101 -
b000 <
04
b000 &
b101 6
b101 7
0!
b101 ?
b101 "
b101 8
b0000 #
b100 $
b101 ,
