test_run_dir/S_Counter/scounter.vcd
$date
2021-10-06T04:27+0000
$end
$version
0.2
$end
$comment

$end
$timescale 1ns  $end
$scope module scounter $end
 $var wire 4 ! count $end
 $var wire 1 " _T $end
 $var wire 4 # _io_result_T $end
 $var wire 5 $ _count_T $end
 $var wire 4 % _count_T_1 $end
 $var wire 16 & max $end
 $var wire 1 ' _GEN_1 $end
 $var wire 1 ( clock $end
 $var wire 16 ) _max_T_4 $end
 $var wire 1 * io_result $end
 $var wire 17 + _max_T_3 $end
 $var wire 4 , _GEN_0 $end
 $var wire 1 - reset $end
 $var wire 4 . _count_T_2 $end
$upscope $end
$enddefinitions $end
$dumpvars
b0000 .
b00000 $
0-
0'
b0000 !
b00000000000001111 +
b0000000000000000 &
b0000 #
0(
0"
0*
b0000000000000000 )
b0000 ,
b0000 %
$end
#0
1-
b0001 %
b0001 .
b0000000000001111 &
b00001 $
b0001 ,
b0000000000001111 )
#1
1(
#6
0-
0(
#11
b0001 !
b0010 %
b0010 .
b00010 $
1(
b0010 ,
#16
0(
#21
b0010 !
b0011 %
b0011 .
b00011 $
1(
b0011 ,
#26
0(
#31
b0011 !
b0100 %
b0100 .
b00100 $
1(
b0100 ,
#36
0(
#41
b0100 !
b0101 %
b0101 .
b00101 $
1(
b0101 ,
#46
0(
#51
b0101 !
b0110 %
b0110 .
b00110 $
1(
b0110 ,
#56
0(
#61
b0110 !
b0111 %
b0111 .
b00111 $
1(
b0111 ,
#66
0(
#71
b0111 !
b1000 %
b1000 .
b01000 $
1(
b1000 ,
#76
0(
#81
b1000 !
b1001 %
b1001 .
b1111 #
1*
1'
b11001 $
1(
b1001 ,
#86
0(
#91
b1001 !
b1010 %
b1010 .
b11010 $
1(
b1010 ,
#96
0(
#101
b1010 !
b1011 %
b1011 .
b11011 $
1(
b1011 ,
#106
0(
#111
b1011 !
b1100 %
b1100 .
b11100 $
1(
b1100 ,
#116
0(
#121
b1100 !
b1101 %
b1101 .
b11101 $
1(
b1101 ,
#126
0(
#131
b1101 !
b1110 %
b1110 .
b11110 $
1(
b1110 ,
#136
0(
#141
b1110 !
b1111 %
b1111 .
b11111 $
1(
b1111 ,
#146
0(
#151
b1111 !
b0000 %
b0000 .
b00000 $
1(
b0000 ,
#156
0(
#161
b0000 !
b0001 %
b0001 .
b0000 #
0*
0'
b00001 $
1(
b0001 ,
#166
0(
#171
b0001 !
b0010 %
b0010 .
b00010 $
1(
b0010 ,
#176
0(
#181
b0010 !
b0011 %
b0011 .
b00011 $
1(
b0011 ,
#186
0(
#191
b0011 !
b0100 %
b0100 .
b00100 $
1(
b0100 ,
#196
0(
#201
b0100 !
b0101 %
b0101 .
b00101 $
1(
b0101 ,
#206
0(
#211
b0101 !
b0110 %
b0110 .
b00110 $
1(
b0110 ,
#216
0(
#221
b0110 !
b0111 %
b0111 .
b00111 $
1(
b0111 ,
#226
0(
#231
b0111 !
b1000 %
b1000 .
b01000 $
1(
b1000 ,
#236
0(
#241
b1000 !
b1001 %
b1001 .
b1111 #
1*
1'
b11001 $
1(
b1001 ,
#246
0(
#251
b1001 !
b1010 %
b1010 .
b11010 $
1(
b1010 ,
#256
0(
#261
b1010 !
b1011 %
b1011 .
b11011 $
1(
b1011 ,
#266
0(
#271
b1011 !
b1100 %
b1100 .
b11100 $
1(
b1100 ,
#276
0(
#281
b1100 !
b1101 %
b1101 .
b11101 $
1(
b1101 ,
#286
0(
#291
b1101 !
b1110 %
b1110 .
b11110 $
1(
b1110 ,
#296
0(
#301
b1110 !
b1111 %
b1111 .
b11111 $
1(
b1111 ,
#306
0(
#311
b1111 !
b0000 %
b0000 .
b00000 $
1(
b0000 ,
#316
0(
#321
b0000 !
b0001 %
b0001 .
b0000 #
0*
0'
b00001 $
1(
b0001 ,
#326
0(
#331
b0001 !
b0010 %
b0010 .
b00010 $
1(
b0010 ,
#336
0(
#341
b0010 !
b0011 %
b0011 .
b00011 $
1(
b0011 ,
#346
0(
#351
b0011 !
b0100 %
b0100 .
b00100 $
1(
b0100 ,
#356
0(
#361
b0100 !
b0101 %
b0101 .
b00101 $
1(
b0101 ,
#366
0(
#371
b0101 !
b0110 %
b0110 .
b00110 $
1(
b0110 ,
#376
0(
#381
b0110 !
b0111 %
b0111 .
b00111 $
1(
b0111 ,
#386
0(
#391
b0111 !
b1000 %
b1000 .
b01000 $
1(
b1000 ,
#396
0(
#401
b1000 !
b1001 %
b1001 .
b1111 #
1*
1'
b11001 $
1(
b1001 ,
#406
0(
#411
b1001 !
b1010 %
b1010 .
b11010 $
1(
b1010 ,
#416
0(
#421
b1010 !
b1011 %
b1011 .
b11011 $
1(
b1011 ,
#426
0(
#431
b1011 !
b1100 %
b1100 .
b11100 $
1(
b1100 ,
#436
0(
#441
b1100 !
b1101 %
b1101 .
b11101 $
1(
b1101 ,
#446
0(
#451
b1101 !
b1110 %
b1110 .
b11110 $
1(
b1110 ,
#456
0(
#461
b1110 !
b1111 %
b1111 .
b11111 $
1(
b1111 ,
#466
0(
#471
b1111 !
b0000 %
b0000 .
b00000 $
1(
b0000 ,
#476
0(
#481
b0000 !
b0001 %
b0001 .
b0000 #
0*
0'
b00001 $
1(
b0001 ,
#486
0(
#491
b0001 !
b0010 %
b0010 .
b00010 $
1(
b0010 ,
#496
0(
#501
b0010 !
b0011 %
b0011 .
b00011 $
1(
b0011 ,
#506
0(
#511
b0011 !
b0100 %
b0100 .
b00100 $
1(
b0100 ,
