test_run_dir/Lab_4_Task_1/lab4task1.vcd
$date
2021-09-23T05:28+0000
$end
$version
0.2
$end
$comment

$end
$timescale 1ns  $end
$scope module lab4task1 $end
 $var wire 32 ! io_arg_y $end
 $var wire 1 " _out_T_13 $end
 $var wire 1 # io_branch $end
 $var wire 1 $ _out_T_5 $end
 $var wire 1 % _out_T_10 $end
 $var wire 32 & _Equalto_T_1 $end
 $var wire 1 ' Lessthan_U $end
 $var wire 1 ( _out_T_8 $end
 $var wire 32 ) io_arg_x $end
 $var wire 3 * io_func3 $end
 $var wire 1 + _out_T_2 $end
 $var wire 1 , Greterthan_U $end
 $var wire 1 - _out_T_12 $end
 $var wire 1 . _out_T_15 $end
 $var wire 1 / _out_T_1 $end
 $var wire 1 0 Equalto $end
 $var wire 32 1 _Equalto_T $end
 $var wire 1 2 _out_T_4 $end
 $var wire 1 3 Greterthan $end
 $var wire 1 4 clock $end
 $var wire 1 5 _out_T_7 $end
 $var wire 1 6 _out_T_14 $end
 $var wire 1 7 Lessthan $end
 $var wire 1 8 _out_T_11 $end
 $var wire 1 9 _out_T_9 $end
 $var wire 1 : reset $end
 $var wire 1 ; _out_T_3 $end
 $var wire 1 < Equalto_U $end
 $var wire 1 = io_br_taken $end
 $var wire 1 > _out_T_6 $end
$upscope $end
$enddefinitions $end
$dumpvars
0%
b00000000000000000000000000000000 &
0;
0<
b000 *
0'
0=
b00000000000000000000000000000000 !
0>
06
07
0"
08
0#
09
0:
02
03
04
05
0-
0.
0/
00
b00000000000000000000000000000000 1
0(
b00000000000000000000000000000000 )
0+
0,
0$
$end
#0
10
1<
1.
19
1:
1/
1>
#1
14
#6
1;
b00010110000101100000001111011111 !
00
0<
04
b11111000101111100111101010111001 1
0.
b00010110000101100000001111011111 &
0:
17
1,
b11111000101111100111101010111001 )
0>
#11
14
#16
13
b11011111000101001001000000001111 !
04
b01101111100011010011101110100001 1
b11011111000101001001000000001111 &
1'
09
07
1>
b01101111100011010011101110100001 )
0,
#21
14
#26
b00100011111001001011100010101001 !
04
b01000101011010000111101001110001 1
b00100011111001001011100010101001 &
1#
0'
19
1,
b01000101011010000111101001110001 )
#31
14
#36
b11011001011001101111100010010010 !
13
04
b00100001011000100101000001000111 1
b11011001011001101111100010010010 &
1'
09
07
0,
b00100001011000100101000001000111 )
1>
#41
14
#46
b11111001011111101001010111001100 !
04
b01100111111101100011111000110110 1
b11111001011111101001010111001100 &
b01100111111101100011111000110110 )
#51
14
#56
b01111100010110011001011010011111 !
03
04
b00000010101110001100011010110001 1
b01111100010110011001011010011111 &
0#
17
0>
b00000010101110001100011010110001 )
#61
14
#66
b10000110111010111001110010001100 !
13
04
b10111011010100000111001010110100 1
b10000110111010111001110010001100 &
0'
19
07
1,
b10111011010100000111001010110100 )
1>
#71
14
#76
b00011110010001111111111010101000 !
03
04
b11001100010100110010110010010000 1
b00011110010001111111111010101000 &
17
0>
b11001100010100110010110010010000 )
#81
14
#86
b10000001010010000111000000101001 !
13
04
b11110101110110010100101101101010 1
b10000001010010000111000000101001 &
1#
07
1>
b11110101110110010100101101101010 )
#91
14
#96
b01001010100010001101100101011101 !
04
b01111010101011001001000111000011 1
b01001010100010001101100101011101 &
0#
0'
19
1,
b01111010101011001001000111000011 )
#101
14
#106
b10011110010100111001100000110100 !
13
04
b00110010011010010000111010101100 1
b10011110010100111001100000110100 &
1#
1'
09
07
0,
b00110010011010010000111010101100 )
1>
#111
14
#116
b10000100010110010111001100100111 !
04
b11011001110010100001010001101110 1
b10000100010110010111001100100111 &
0'
19
1,
b11011001110010100001010001101110 )
#121
14
#126
b01100100100000011111010000101100 !
03
04
b10011001100000011010000011010110 1
b01100100100000011111010000101100 &
0#
17
0>
b10011001100000011010000011010110 )
#131
14
#136
b01111101101010001111001011100101 !
04
b01010000010011010111001001011010 1
b01111101101010001111001011100101 &
1'
09
0,
b01010000010011010111001001011010 )
#141
14
#146
b00000110111101111001110001011100 !
13
04
b00111010011011001110101011010010 1
b00000110111101111001110001011100 &
0'
19
07
1,
b00111010011011001110101011010010 )
1>
#151
14
#156
03
b11001001100101101001001111100110 !
04
b11000000001111011001101110001100 1
b11001001100101101001001111100110 &
1#
1'
09
17
0>
b11000000001111011001101110001100 )
0,
#161
14
#166
b00000110111111011010101111111001 !
03
04
b11011000011100110011011111001101 1
b00000110111111011010101111111001 &
0#
0'
19
17
1,
b11011000011100110011011111001101 )
0>
#171
14
#176
b01100100110101110111111100100111 !
04
b10110110101010011000001000101000 1
b01100100110101110111111100100111 &
b10110110101010011000001000101000 )
#181
14
#186
b00100101111001001011000001110111 !
04
b11111111100010111110011000110110 1
b00100101111001001011000001110111 &
b11111111100010111110011000110110 )
#191
14
#196
13
b00110110110101100001111111001110 !
04
b01101010110101001010001110001000 1
b00110110110101100001111111001110 &
1#
07
1>
b01101010110101001010001110001000 )
#201
14
#206
b00100111111101101011101000101100 !
04
b01100001000111000000011111111000 1
b00100111111101101011101000101100 &
0#
b01100001000111000000011111111000 )
#211
14
#216
b11011000011101100000111011100111 !
13
04
b11100011010001000000011010011000 1
b11011000011101100000111011100111 &
07
1>
b11100011010001000000011010011000 )
#221
14
#226
b10010100011010110100101000101001 !
13
04
b10100011110000111100110111111000 1
b10010100011010110100101000101001 &
0'
19
07
1,
b10100011110000111100110111111000 )
1>
#231
14
#236
b10000000001111001111001001011101 !
04
b01100000000001011010101101110110 1
b10000000001111001111001001011101 &
1'
09
0,
b01100000000001011010101101110110 )
#241
14
#246
b11001100011110101001100101010100 !
03
04
b10110100001001001101101011010001 1
b11001100011110101001100101010100 &
1#
1'
09
17
0,
b10110100001001001101101011010001 )
0>
#251
14
#256
b01010010011100011110101100111100 !
03
04
b01000111001010111010100001000111 1
b01010010011100011110101100111100 &
0#
17
0>
b01000111001010111010100001000111 )
#261
14
#266
b11001101111101001111010011001010 !
04
b10010111001100001101100011001111 1
b11001101111101001111010011001010 &
1#
1'
09
0,
b10010111001100001101100011001111 )
#271
14
#276
b01111101110100100110111100100110 !
03
04
b11011111111011110110111101011011 1
b01111101110100100110111100100110 &
0#
0'
19
17
1,
b11011111111011110110111101011011 )
0>
#281
14
#286
b11000001011001100010101101110100 !
13
04
b01110100001100001110111100101010 1
b11000001011001100010101101110100 &
1#
1'
09
07
0,
b01110100001100001110111100101010 )
1>
#291
14
#296
b01011110000001001010100100010011 !
03
04
b01000011100010001111101010000100 1
b01011110000001001010100100010011 &
17
0>
b01000011100010001111101010000100 )
#301
14
#306
b00010010000011000100100011101000 !
13
04
b01010100100100111111001010000100 1
b00010010000011000100100011101000 &
0#
0'
19
07
1,
b01010100100100111111001010000100 )
1>
#311
14
#316
03
b01001011001101001011110101001110 !
04
b11100101101110001101011110110011 1
b01001011001101001011110101001110 &
17
0>
b11100101101110001101011110110011 )
#321
14
#326
b01111100000001000001100110000011 !
04
b00011100111010100110110010100101 1
b01111100000001000001100110000011 &
1'
09
0,
b00011100111010100110110010100101 )
#331
14
#336
b00011101100010111000110010101100 !
04
b11000011100100110101001011010101 1
b00011101100010111000110010101100 &
0'
19
1,
b11000011100100110101001011010101 )
#341
14
#346
b11110100010001010011001111000100 !
04
b11001100100011001101011101110101 1
b11110100010001010011001111000100 &
1'
09
0,
b11001100100011001101011101110101 )
#351
14
#356
b10101010101010101101001100001110 !
13
04
b10110010100001100011100011101110 1
b10101010101010101101001100001110 &
0'
19
07
1,
b10110010100001100011100011101110 )
1>
#361
14
#366
b00000011100110101000001011101011 !
03
04
b11000011011110011010011100111011 1
b00000011100110101000001011101011 &
17
0>
b11000011011110011010011100111011 )
#371
14
#376
b01101110010100111011110100011010 !
04
b11111101000110011111000001110100 1
b01101110010100111011110100011010 &
1#
b11111101000110011111000001110100 )
#381
14
#386
b10010010111100111000111011010010 !
13
04
b11100111010001100000000000010101 1
b10010010111100111000111011010010 &
07
1>
b11100111010001100000000000010101 )
#391
14
#396
b00001101000100100101000100110110 !
03
04
b10111011110100011110001011101101 1
b00001101000100100101000100110110 &
17
0>
b10111011110100011110001011101101 )
#401
14
#406
13
b11101001011101011111110100001011 !
04
b00011011110001010011001010111000 1
b11101001011101011111110100001011 &
0#
1'
09
07
1>
b00011011110001010011001010111000 )
0,
#411
14
#416
b10110011011110010100011111000101 !
04
b01101000000011110111001111001011 1
b10110011011110010100011111000101 &
b01101000000011110111001111001011 )
#421
14
#426
b11100100110111100000011100111100 !
03
04
b11011001100100000101110001101001 1
b11100100110111100000011100111100 &
1'
09
17
0,
b11011001100100000101110001101001 )
0>
#431
14
#436
b01011101011001110010111010100110 !
04
b10000010001101100000000010001000 1
b01011101011001110010111010100110 &
1#
0'
19
1,
b10000010001101100000000010001000 )
#441
14
#446
b00101000001111111110001010110111 !
13
04
b01001111000110001100011000111011 1
b00101000001111111110001010110111 &
0'
19
07
1,
b01001111000110001100011000111011 )
1>
#451
14
#456
b10001010001101101111001111101010 !
13
04
b11000100110001011010010111111110 1
b10001010001101101111001111101010 &
0#
07
1>
b11000100110001011010010111111110 )
#461
14
#466
b11111101010110110101010101011101 !
03
04
b10010111101011001101111110001010 1
b11111101010110110101010101011101 &
1'
09
17
0,
b10010111101011001101111110001010 )
0>
#471
14
#476
b10100011111000110011001111010101 !
13
04
b11111000111101011100011100001001 1
b10100011111000110011001111010101 &
1#
0'
19
07
1,
b11111000111101011100011100001001 )
1>
#481
14
#486
b00001110101011011111001110110101 !
04
b00111010000100001110111110111000 1
b00001110101011011111001110110101 &
0#
0'
19
1,
b00111010000100001110111110111000 )
#491
14
#496
b10011011010001001110011000010111 !
13
04
b11000111110001111001000001100000 1
b10011011010001001110011000010111 &
1#
07
1>
b11000111110001111001000001100000 )
#501
14
#506
b10001101100001111100010001001000 !
04
b01110101010000011101101100101000 1
b10001101100001111100010001001000 &
0#
1'
09
0,
b01110101010000011101101100101000 )
#511
14
#516
b11000001111100110100011001001100 !
03
04
b11000001110100111111010110110000 1
b11000001111100110100011001001100 &
1#
1'
09
17
0,
b11000001110100111111010110110000 )
0>
#521
14
#526
13
b00011100110110010100010001000000 !
04
b01101000111010011001011101111000 1
b00011100110110010100010001000000 &
0'
19
07
1>
b01101000111010011001011101111000 )
1,
#531
14
#536
03
b01100110001001000001001110110010 !
04
b10111001011111111110001111111010 1
b01100110001001000001001110110010 &
0#
17
0>
b10111001011111111110001111111010 )
#541
14
#546
b01001000100000010000100101000001 !
04
b11111111001110100010101100000011 1
b01001000100000010000100101000001 &
b11111111001110100010101100000011 )
#551
14
#556
b11101101100000001000010000101001 !
04
b10010100000001001010010100101111 1
b11101101100000001000010000101001 &
1'
09
0,
b10010100000001001010010100101111 )
#561
14
#566
b11110110110010100111110010000111 !
04
b10100010100011010101001110010110 1
b11110110110010100111110010000111 &
b10100010100011010101001110010110 )
#571
14
#576
b01000100011101001000011001110001 !
03
04
b00000111000110011011000100001010 1
b01000100011101001000011001110001 &
1#
17
0>
b00000111000110011011000100001010 )
#581
14
#586
13
b00100111110101100110101101000001 !
04
b01010001100011000011000001110010 1
b00100111110101100110101101000001 &
0'
19
07
1,
b01010001100011000011000001110010 )
1>
#591
14
#596
03
b00101111010010110010111110011111 !
04
b10110000010010000110011100101101 1
b00101111010010110010111110011111 &
17
0>
b10110000010010000110011100101101 )
#601
14
#606
b01000010000010010110100000101100 !
04
b00000100000000111000101110000010 1
b01000010000010010110100000101100 &
1'
09
0,
b00000100000000111000101110000010 )
#611
14
#616
13
b11111100101101000110111111100000 !
04
b01101001010010010110111001111111 1
b11111100101101000110111111100000 &
1'
09
07
1>
b01101001010010010110111001111111 )
0,
#621
14
#626
03
b11011100100110110011101001110100 !
04
b10011000001001101001110111011110 1
b11011100100110110011101001110100 &
17
0>
b10011000001001101001110111011110 )
#631
14
#636
13
b11111101010101010110101001110010 !
04
b01000111011111101011010111000101 1
b11111101010101010110101001110010 &
0#
07
1>
b01000111011111101011010111000101 )
#641
14
#646
03
b01101111001111011101010111001000 !
04
b10010111000110110110101110000000 1
b01101111001111011101010111001000 &
1#
0'
19
17
0>
b10010111000110110110101110000000 )
1,
#651
14
#656
b00001101000001100000110011100000 !
04
b11100100111011000101000110000000 1
b00001101000001100000110011100000 &
0#
b11100100111011000101000110000000 )
#661
14
#666
13
b00000000110010011001011110111100 !
04
b00001111100000010001001001000101 1
b00000000110010011001011110111100 &
07
1>
b00001111100000010001001001000101 )
#671
14
#676
b00010111100110111100000101111110 !
04
b00110100001111011011001100000110 1
b00010111100110111100000101111110 &
1#
b00110100001111011011001100000110 )
#681
14
#686
03
b00010100001011111100011001100011 !
04
b11110000011100011010100000100111 1
b00010100001011111100011001100011 &
0#
17
0>
b11110000011100011010100000100111 )
#691
14
#696
b01011111110110100101100100100101 !
04
b10000000101010111111010011100100 1
b01011111110110100101100100100101 &
b10000000101010111111010011100100 )
#701
14
#706
b11011011111000111000110000101101 !
04
b10110110100011101000010010111010 1
b11011011111000111000110000101101 &
1'
09
0,
b10110110100011101000010010111010 )
#711
14
#716
13
b00010010100110011000100000101111 !
04
b01011011001111010011100001110011 1
b00010010100110011000100000101111 &
1#
0'
19
07
1>
b01011011001111010011100001110011 )
1,
#721
14
#726
b10010101101101001110110011111110 !
13
04
b10111010001011110001000111100100 1
b10010101101101001110110011111110 &
07
1>
b10111010001011110001000111100100 )
#731
14
#736
b01011101100111101001001010110110 !
03
04
b00011010000101000101000010111001 1
b01011101100111101001001010110110 &
0#
1'
09
17
0,
b00011010000101000101000010111001 )
0>
#741
14
#746
b11000101000000000111000010010001 !
13
04
b11111001000011110111111111100001 1
b11000101000000000111000010010001 &
1#
0'
19
07
1,
b11111001000011110111111111100001 )
1>
#751
14
#756
b01111000010101110000010000001000 !
03
04
b01110001101000110011011010000010 1
b01111000010101110000010000001000 &
1'
09
17
0,
b01110001101000110011011010000010 )
0>
#761
14
#766
b01110100010110010111111000001100 !
04
b00100010000111011111100001110111 1
b01110100010110010111111000001100 &
b00100010000111011111100001110111 )
#771
14
#776
b01000111110010101000110101101110 !
13
04
b01001011110010100000000110111111 1
b01000111110010101000110101101110 &
0'
19
07
1,
b01001011110010100000000110111111 )
1>
#781
14
#786
03
b01011011101101001010010011100100 !
04
b11100110100000100010110101110110 1
b01011011101101001010010011100100 &
17
0>
b11100110100000100010110101110110 )
#791
14
#796
b00011101111111110110100000011111 !
04
b11001011011111110110010000011111 1
b00011101111111110110100000011111 &
b11001011011111110110010000011111 )
#801
14
#806
b10011001110100100100111011110010 !
13
04
b11101010111101000101111001110011 1
b10011001110100100100111011110010 &
07
1>
b11101010111101000101111001110011 )
#811
14
#816
b01111010111011011101011001111111 !
03
04
b11010101110011101110000011101100 1
b01111010111011011101011001111111 &
0#
17
0>
b11010101110011101110000011101100 )
#821
14
#826
b11111000100000011001011111010111 !
13
04
b00001111001011100011000111000101 1
b11111000100000011001011111010111 &
1#
1'
09
07
0,
b00001111001011100011000111000101 )
1>
#831
14
#836
b00111001001111001010000010011101 !
03
04
b00110000000001000011111000101001 1
b00111001001111001010000010011101 &
17
0>
b00110000000001000011111000101001 )
#841
14
#846
13
b10001000100001100100010110001101 !
04
b01100001111100001111110011000000 1
b10001000100001100100010110001101 &
0#
1'
09
07
1>
b01100001111100001111110011000000 )
0,
#851
14
#856
b10011110100110011010011111101100 !
04
b01110000000000101110101011101001 1
b10011110100110011010011111101100 &
1#
b01110000000000101110101011101001 )
#861
14
#866
b11010100101111000001111001001110 !
04
b11011110000010100101011100110001 1
b11010100101111000001111001001110 &
0'
19
1,
b11011110000010100101011100110001 )
#871
14
#876
03
b11100101110101101110111001000000 !
04
b10000100010010110101011011110001 1
b11100101110101101110111001000000 &
1'
09
17
0,
b10000100010010110101011011110001 )
0>
#881
14
#886
b01001001101111010001011110101011 !
04
b10110011001010010001011000011010 1
b01001001101111010001011110101011 &
0#
0'
19
1,
b10110011001010010001011000011010 )
#891
14
#896
13
b11101011010001011010110000001100 !
04
b01011110010011110111011110010001 1
b11101011010001011010110000001100 &
1'
09
07
1>
b01011110010011110111011110010001 )
0,
#901
14
#906
b10000001000101110001101011100100 !
04
b00111011011110100000100110110000 1
b10000001000101110001101011100100 &
b00111011011110100000100110110000 )
#911
14
#916
b00101001010101100101000111011011 !
04
b01101000101100101111010111000000 1
b00101001010101100101000111011011 &
0'
19
1,
b01101000101100101111010111000000 )
#921
14
#926
03
b01101010010000010101101010001110 !
04
b00001000001001010001101010010010 1
b01101010010000010101101010001110 &
1'
09
17
0,
b00001000001001010001101010010010 )
0>
#931
14
#936
b10000111100011011001000100001100 !
04
b10000101001010101100000101110111 1
b10000111100011011001000100001100 &
1'
09
0,
b10000101001010101100000101110111 )
#941
14
#946
13
b01010001010000000111010101100101 !
04
b01110010001000001010001001001011 1
b01010001010000000111010101100101 &
0'
19
07
1>
b01110010001000001010001001001011 )
1,
#951
14
#956
03
b00010111101000111100011111010010 !
04
b10101000001000110000011001010000 1
b00010111101000111100011111010010 &
17
0>
b10101000001000110000011001010000 )
#961
14
#966
b01000000100000111110001001101110 !
04
b10000101101010100001101100001010 1
b01000000100000111110001001101110 &
1#
b10000101101010100001101100001010 )
#971
14
#976
b10001111011001010110110001101100 !
13
04
b00011100011000011011110101011111 1
b10001111011001010110110001101100 &
0#
1'
09
07
0,
b00011100011000011011110101011111 )
1>
#981
14
#986
b01101010001111100110001001010001 !
03
04
b10110100010010001000001010100000 1
b01101010001111100110001001010001 &
0'
19
17
1,
b10110100010010001000001010100000 )
0>
#991
14
#996
b10001000111010000101001110100001 !
13
04
b10010011110001110101100001010000 1
b10001000111010000101001110100001 &
07
1>
b10010011110001110101100001010000 )
#1001
14
#1006
b00011010100011100111000111110101 !
03
04
b10011110110011100000110010111011 1
b00011010100011100111000111110101 &
17
0>
b10011110110011100000110010111011 )
#1011
14
#1016
13
b10100001001000101110111001111111 !
04
b01110101010101100100000111000001 1
b10100001001000101110111001111111 &
1'
09
07
1>
b01110101010101100100000111000001 )
0,
#1021
14
#1026
b00100000011110101111101001011101 !
04
b00111101100111000000000001100001 1
b00100000011110101111101001011101 &
1#
0'
19
1,
b00111101100111000000000001100001 )
#1031
14
#1036
b11010110001001111101101101010100 !
13
04
b00011001000011010010111011100010 1
b11010110001001111101101101010100 &
0#
1'
09
07
0,
b00011001000011010010111011100010 )
1>
#1041
14
#1046
b11001101010100111011100111000011 !
04
b01001100101101001101110010110000 1
b11001101010100111011100111000011 &
b01001100101101001101110010110000 )
#1051
14
#1056
03
b11001101011110010110010111101101 !
04
b10011001000111110111111001001011 1
b11001101011110010110010111101101 &
1#
17
0>
b10011001000111110111111001001011 )
#1061
14
#1066
b01001001101011000010000111110011 !
03
04
b11100010001011100010000011010101 1
b01001001101011000010000111110011 &
0#
0'
19
17
1,
b11100010001011100010000011010101 )
0>
#1071
14
#1076
b01001111010101011101001100001110 !
04
b10001010111100100010000000011110 1
b01001111010101011101001100001110 &
1#
b10001010111100100010000000011110 )
#1081
14
#1086
b01110010001010101010011111101010 !
04
b10001011100101000101001101001010 1
b01110010001010101010011111101010 &
0#
b10001011100101000101001101001010 )
#1091
14
#1096
b10000000110001101001001100110010 !
13
04
b11001010001110101100001101011110 1
b10000000110001101001001100110010 &
1#
07
1>
b11001010001110101100001101011110 )
#1101
14
#1106
b00010110000001011100000010101111 !
03
04
b11101001000100010010010001010100 1
b00010110000001011100000010101111 &
0#
17
0>
b11101001000100010010010001010100 )
#1111
14
#1116
b10010010111000011011100010000101 !
13
04
b10111010111100100100010010001111 1
b10010010111000011011100010000101 &
1#
07
1>
b10111010111100100100010010001111 )
#1121
14
#1126
b11101010100000110000011101110001 !
04
b00000110110111001100011110111101 1
b11101010100000110000011101110001 &
0#
1'
09
0,
b00000110110111001100011110111101 )
#1131
14
#1136
b01101101010011100100110000011110 !
03
04
b00110100101110101001100110001110 1
b01101101010011100100110000011110 &
1#
17
0>
b00110100101110101001100110001110 )
#1141
14
#1146
b11101011011001000100100011100010 !
13
04
b01010101111110001110000111001110 1
b11101011011001000100100011100010 &
0#
07
1>
b01010101111110001110000111001110 )
#1151
14
#1156
b10011011111110010101111010000010 !
04
b00011001001000111011011010110011 1
b10011011111110010101111010000010 &
b00011001001000111011011010110011 )
#1161
14
#1166
b00000101001000010110111111010011 !
04
b00011111101001001010001110001111 1
b00000101001000010110111111010011 &
0'
19
1,
b00011111101001001010001110001111 )
#1171
14
#1176
b10100111010000101110111101010110 !
04
b01001111001000100010100100100101 1
b10100111010000101110111101010110 &
1#
1'
09
0,
b01001111001000100010100100100101 )
#1181
14
#1186
b10011100010111011000111100010001 !
04
b01000010101001101111001001000011 1
b10011100010111011000111100010001 &
b01000010101001101111001001000011 )
#1191
14
#1196
b01000001111111110000100001100011 !
03
04
b00100110010011010110001001111101 1
b01000001111111110000100001100011 &
17
0>
b00100110010011010110001001111101 )
#1201
14
#1206
13
b11011011011100001000010010000000 !
04
b01110001101101001011011000011110 1
b11011011011100001000010010000000 &
1'
09
07
1>
b01110001101101001011011000011110 )
0,
#1211
14
#1216
03
b00000100101110001010011111001111 !
04
b10011101010110101111000110011111 1
b00000100101110001010011111001111 &
0#
0'
19
17
0>
b10011101010110101111000110011111 )
1,
#1221
14
#1226
b00101100011001011111000101110101 !
04
b10011110000111101010110001001001 1
b00101100011001011111000101110101 &
b10011110000111101010110001001001 )
#1231
14
#1236
b00000000111100010101010110011010 !
04
b10001110000001110010010011010101 1
b00000000111100010101010110011010 &
b10001110000001110010010011010101 )
#1241
14
#1246
b00110000101101011000010001011000 !
04
b10101100110100110101100000011001 1
b00110000101101011000010001011000 &
1#
b10101100110100110101100000011001 )
#1251
14
#1256
b01101100111000011000000001011000 !
04
b10101110011100101101000100101101 1
b01101100111000011000000001011000 &
b10101110011100101101000100101101 )
#1261
14
#1266
b00100001011101111100111101111011 !
04
b10010100110111101110111110001011 1
b00100001011101111100111101111011 &
0#
b10010100110111101110111110001011 )
#1271
14
#1276
b00110111110000101111110100101110 !
04
b11000010001100010011101100010100 1
b00110111110000101111110100101110 &
1#
b11000010001100010011101100010100 )
#1281
14
#1286
b01001000001101100010100100110101 !
04
b00000001001011000101111100000011 1
b01001000001101100010100100110101 &
0#
1'
09
0,
b00000001001011000101111100000011 )
#1291
14
#1296
13
b00010011001100000100011100001111 !
04
b01001101000100000101110000110011 1
b00010011001100000100011100001111 &
1#
0'
19
07
1,
b01001101000100000101110000110011 )
1>
#1301
14
#1306
03
b00101010111010110101000101000011 !
04
b00001010100111111100000001000110 1
b00101010111010110101000101000011 &
0#
1'
09
17
0,
b00001010100111111100000001000110 )
0>
#1311
14
#1316
b10010110111000000101100100110111 !
13
04
b11101100010100010000001010001010 1
b10010110111000000101100100110111 &
0'
19
07
1,
b11101100010100010000001010001010 )
1>
#1321
14
#1326
b11001010100111011101011101100000 !
04
b01111110111100111110000010110110 1
b11001010100111011101011101100000 &
1#
1'
09
0,
b01111110111100111110000010110110 )
#1331
14
#1336
b10100100010000000100000011101000 !
04
b11110001110010111000010011001100 1
b10100100010000000100000011101000 &
0#
0'
19
1,
b11110001110010111000010011001100 )
#1341
14
#1346
b10100100011011000111111100100011 !
04
b11101011010100011011001011001101 1
b10100100011011000111111100100011 &
1#
b11101011010100011011001011001101 )
#1351
14
#1356
b00111110011000001100001001100100 !
04
b01111100101000010000011111111010 1
b00111110011000001100001001100100 &
0#
0'
19
1,
b01111100101000010000011111111010 )
#1361
14
#1366
03
b11101110001100000001110100011000 !
04
b10100010101000011100011011011011 1
b11101110001100000001110100011000 &
1'
09
17
0>
b10100010101000011100011011011011 )
0,
#1371
14
#1376
b00101011100111111010110100101100 !
04
b10010101110110001001001001000011 1
b00101011100111111010110100101100 &
1#
0'
19
1,
b10010101110110001001001001000011 )
#1381
14
#1386
b00110011001111011010100100100011 !
04
b10101110010111010010011100000100 1
b00110011001111011010100100100011 &
0#
b10101110010111010010011100000100 )
#1391
14
#1396
b00001000101000011011101101110111 !
04
b10001001111000100110011100011011 1
b00001000101000011011101101110111 &
1#
b10001001111000100110011100011011 )
#1401
14
#1406
b00101000100101101000001000010001 !
04
b11011000011001000011001001110101 1
b00101000100101101000001000010001 &
0#
b11011000011001000011001001110101 )
#1411
14
#1416
b11110010110110110001100011110101 !
13
04
b00001011101100110110100010011010 1
b11110010110110110001100011110101 &
1'
09
07
0,
b00001011101100110110100010011010 )
1>
#1421
14
#1426
b01101011001101000001111010000000 !
03
04
b00110100010111110101001111100110 1
b01101011001101000001111010000000 &
17
0>
b00110100010111110101001111100110 )
#1431
14
#1436
b10110011010010011110110011000110 !
04
b10011000001111010111101000011000 1
b10110011010010011110110011000110 &
1'
09
0,
b10011000001111010111101000011000 )
#1441
14
#1446
b00111100010101111010011011110001 !
03
04
b00001010101001101010111101010110 1
b00111100010101111010011011110001 &
1#
17
0>
b00001010101001101010111101010110 )
#1451
14
#1456
b11001011011001111000001010110101 !
13
04
b00000010101110010010000000000110 1
b11001011011001111000001010110101 &
0#
07
1>
b00000010101110010010000000000110 )
#1461
14
#1466
b00010000000111010011010100101011 !
04
b00101100111000110010001100000001 1
b00010000000111010011010100101011 &
1#
0'
19
1,
b00101100111000110010001100000001 )
#1471
14
#1476
b00000101111100011110111110111001 !
04
b00111000101111111101100100001110 1
b00000101111100011110111110111001 &
b00111000101111111101100100001110 )
#1481
14
#1486
b01110111010001011011010011010011 !
03
04
b01010000110011000011011110100110 1
b01110111010001011011010011010011 &
1'
09
17
0,
b01010000110011000011011110100110 )
0>
#1491
14
#1496
b00011110010010010100110110101110 !
04
b11010001110111011110110001101110 1
b00011110010010010100110110101110 &
0'
19
1,
b11010001110111011110110001101110 )
#1501
14
#1506
13
b00100111011110011010000101001001 !
04
b01101110110100111101101111110111 1
b00100111011110011010000101001001 &
07
1>
b01101110110100111101101111110111 )
#1511
14
#1516
b10111010111100001110101001010001 !
04
b01000110010001011010100110010010 1
b10111010111100001110101001010001 &
1'
09
0,
b01000110010001011010100110010010 )
#1521
14
#1526
03
b01110010011100100001110011000110 !
04
b10001100011110100000011101100001 1
b01110010011100100001110011000110 &
0#
0'
19
17
0>
b10001100011110100000011101100001 )
1,
#1531
14
#1536
b10111101100101100000010101111010 !
13
04
b00010100111011010101010011110001 1
b10111101100101100000010101111010 &
1'
09
07
0,
b00010100111011010101010011110001 )
1>
#1541
14
#1546
b10100101101111010001110010110011 !
04
b00100011101001111001111111111110 1
b10100101101111010001110010110011 &
b00100011101001111001111111111110 )
#1551
14
#1556
b11001100000010101111101010011101 !
04
b01001111110111000011111000101010 1
b11001100000010101111101010011101 &
b01001111110111000011111000101010 )
#1561
14
#1566
b10010111011101001010011101001100 !
04
b00110101000100010011111111010111 1
b10010111011101001010011101001100 &
b00110101000100010011111111010111 )
#1571
14
#1576
b11001101001011101111000110000011 !
04
b00001111000000101011101101011111 1
b11001101001011101111000110000011 &
1#
b00001111000000101011101101011111 )
#1581
14
#1586
b00010001100000000101111001110110 !
04
b01010010011111111011010101011110 1
b00010001100000000101111001110110 &
0'
19
1,
b01010010011111111011010101011110 )
#1591
14
#1596
b11011001111111110111001001000100 !
13
04
b00000011111011000000010111010001 1
b11011001111111110111001001000100 &
1'
09
07
0,
b00000011111011000000010111010001 )
1>
#1601
14
#1606
03
b00011010000100111101001111011110 !
04
b10111010001101010101101100101100 1
b00011010000100111101001111011110 &
0'
19
17
0>
b10111010001101010101101100101100 )
1,
#1611
14
#1616
b00101001010100100111100010001001 !
04
b10100100001010000011001110111101 1
b00101001010100100111100010001001 &
b10100100001010000011001110111101 )
#1621
14
#1626
13
b11111110010100110110001001010010 !
04
b00111101101111001010001011111000 1
b11111110010100110110001001010010 &
1'
09
07
1>
b00111101101111001010001011111000 )
0,
#1631
14
#1636
b10110011001101001110001000000001 !
04
b00101010101101111100101101110110 1
b10110011001101001110001000000001 &
0#
b00101010101101111100101101110110 )
#1641
14
#1646
b11111000100111001000100001100100 !
03
04
b11000111011111010110111111011000 1
b11111000100111001000100001100100 &
1'
09
17
0,
b11000111011111010110111111011000 )
0>
#1651
14
#1656
b01111010111000100101010000100001 !
04
b10010011010010011010101111000100 1
b01111010111000100101010000100001 &
0'
19
1,
b10010011010010011010101111000100 )
#1661
14
#1666
b11000000000111100000000000111101 !
13
04
b00100010110001000001101110111011 1
b11000000000111100000000000111101 &
1'
09
07
0,
b00100010110001000001101110111011 )
1>
#1671
14
#1676
b10000011000000001111010100100000 !
04
b11110001111111110100010101111100 1
b10000011000000001111010100100000 &
1#
0'
19
1,
b11110001111111110100010101111100 )
#1681
14
#1686
b11110000011101110001000010111111 !
04
b01001100101011100100010000100110 1
b11110000011101110001000010111111 &
0#
1'
09
0,
b01001100101011100100010000100110 )
#1691
14
#1696
b10101010011111001001010000110001 !
04
b01101000111010100110001001100000 1
b10101010011111001001010000110001 &
b01101000111010100110001001100000 )
#1701
14
#1706
b00101111001111001101001111011111 !
04
b01000000111101101011101000101110 1
b00101111001111001101001111011111 &
1#
0'
19
1,
b01000000111101101011101000101110 )
#1711
14
#1716
b11110000010010100001110100000011 !
13
04
b11110110110100101111010100111010 1
b11110000010010100001110100000011 &
0#
07
1>
b11110110110100101111010100111010 )
#1721
14
#1726
b00100111110001110110111001000010 !
04
b01111111000110110011000110110111 1
b00100111110001110110111001000010 &
0'
19
1,
b01111111000110110011000110110111 )
#1731
14
#1736
b10011100110001010111001001111000 !
04
b01101010010010101010111100110011 1
b10011100110001010111001001111000 &
1'
09
0,
b01101010010010101010111100110011 )
#1741
14
#1746
03
b11000100110010000111010000010110 !
04
b10011010000100111000101111101011 1
b11000100110010000111010000010110 &
1#
17
0>
b10011010000100111000101111101011 )
#1751
14
#1756
b01100111100000010000110010100010 !
04
b10011101111001110101011001111001 1
b01100111100000010000110010100010 &
0#
0'
19
1,
b10011101111001110101011001111001 )
