test_run_dir/lab_6_ex_2/lab6ex2.vcd
$date
2021-09-29T09:51+0000
$end
$version
0.2
$end
$comment

$end
$timescale 1ns  $end
$scope module lab6ex2 $end
 $var wire 2 ! io_out $end
 $var wire 2 " count_buffer $end
 $var wire 2 # counter $end
 $var wire 1 $ clock $end
 $var wire 3 % _count_buffer_T $end
 $var wire 1 & reset $end
$upscope $end
$enddefinitions $end
$dumpvars
b00 #
0&
b00 !
b000 %
0$
b00 "
$end
#0
b001 %
b01 "
1&
#1
1$
#6
0&
0$
#11
b01 !
b010 %
b10 "
b01 #
1$
#16
0$
#21
b10 !
b011 %
b11 "
b10 #
1$
#26
0$
#31
b11 !
b100 %
b00 "
b11 #
1$
#36
0$
#41
b00 !
b001 %
b01 "
b00 #
1$
#46
0$
#51
b01 !
b010 %
b10 "
b01 #
1$
#56
0$
#61
b10 !
b011 %
b11 "
b10 #
1$
#66
0$
#71
b11 !
b100 %
b00 "
b11 #
1$
#76
0$
#81
b00 !
b001 %
b01 "
b00 #
1$
#86
0$
#91
b01 !
b010 %
b10 "
b01 #
1$
#96
0$
#101
b10 !
b011 %
b11 "
b10 #
1$
#106
0$
#111
b11 !
b100 %
b00 "
b11 #
1$
#116
0$
#121
b00 !
b001 %
b01 "
b00 #
1$
#126
0$
#131
b01 !
b010 %
b10 "
b01 #
1$
#136
0$
#141
b10 !
b011 %
b11 "
b10 #
1$
#146
0$
#151
b11 !
b100 %
b00 "
b11 #
1$
#156
0$
#161
b00 !
b001 %
b01 "
b00 #
1$
#166
0$
#171
b01 !
b010 %
b10 "
b01 #
1$
#176
0$
#181
b10 !
b011 %
b11 "
b10 #
1$
#186
0$
#191
b11 !
b100 %
b00 "
b11 #
1$
#196
0$
#201
b00 !
b001 %
b01 "
b00 #
1$
#206
0$
#211
b01 !
b010 %
b10 "
b01 #
1$
