test_run_dir/Immediate_Generation_T/Immediate_Gen.vcd
$date
2021-10-13T07:26+0000
$end
$version
0.2
$end
$comment

$end
$timescale 1ns  $end
$scope module Immediate_Gen $end
 $var wire 32 ! _io_immd_se_T_15 $end
 $var wire 32 " io_pc $end
 $var wire 35 # _io_immd_se_T_5 $end
 $var wire 4 $ io_immd_se_lo_hi_lo $end
 $var wire 1 % _io_immd_se_T $end
 $var wire 32 & _GEN_2 $end
 $var wire 4 ' io_immd_se_hi_lo_1 $end
 $var wire 7 ( _T $end
 $var wire 20 ) io_immd_se_hi_hi $end
 $var wire 32 * _GEN_5 $end
 $var wire 32 + _io_immd_se_T_2 $end
 $var wire 12 , io_immd_se_lo_2 $end
 $var wire 32 - _io_immd_se_T_20 $end
 $var wire 1 . io_immd_se_lo_hi $end
 $var wire 33 / _io_immd_se_T_14 $end
 $var wire 11 0 io_immd_se_hi_hi_hi_2 $end
 $var wire 20 1 _io_immd_se_T_4 $end
 $var wire 32 2 _GEN_1 $end
 $var wire 35 3 _GEN_4 $end
 $var wire 32 4 _io_immd_se_T_19 $end
 $var wire 32 5 _io_immd_se_T_10 $end
 $var wire 32 6 _io_immd_se_T_13 $end
 $var wire 1 7 clock $end
 $var wire 32 8 _io_immd_se_T_16 $end
 $var wire 7 9 io_immd_se_hi_lo $end
 $var wire 35 : _io_immd_se_T_6 $end
 $var wire 32 ; io_immd_se $end
 $var wire 8 < io_immd_se_lo_lo $end
 $var wire 32 = _io_immd_se_T_9 $end
 $var wire 1 > io_immd_se_hi_lo_2 $end
 $var wire 32 ? io_instr $end
 $var wire 19 @ io_immd_se_hi_hi_hi_1 $end
 $var wire 32 A _GEN_6 $end
 $var wire 32 B _io_immd_se_T_3 $end
 $var wire 32 C _GEN_0 $end
 $var wire 6 D io_immd_se_hi_hi_lo $end
 $var wire 1 E reset $end
 $var wire 35 F _GEN_3 $end
 $var wire 5 G io_immd_se_lo $end
$upscope $end
$enddefinitions $end
$dumpvars
0%
b00000000000000000000000000000000 &
b00000000000000000000000000000000 ;
b0000 '
b0000000000000000000 @
b00000000000000000000000000000000000 F
b00000000000000000000000000000000 =
b00000000000000000000000000000000 !
b0000000 (
0>
b00000000000000000000000000000000 ?
b00000000000000000000000000000000 "
b00000000000000000000000000000000000 #
07
b00000000000000000000000000000000 8
b0000 $
b00000000000000000000000000000000000 :
b00000000000000000000000000000000 2
b000000000000000000000000000000000 /
b00000 G
b00000000 <
b00000000000000000000000000000000 4
b00000000000000000000000000000000 5
b00000000000000000000000000000000 6
b00000000000000000000 1
0.
b00000000000000000000 )
0E
b00000000000 0
b00000000000000000000000000000000000 3
b00000000000000000000000000000000 *
b0000000 9
b00000000000000000000000000000000 +
b00000000000000000000000000000000 A
b00000000000000000000000000000000 B
b00000000000000000000000000000000 -
b000000 D
b00000000000000000000000000000000 C
b000000000000 ,
$end
#0
1E
#1
17
#6
b00000000000000000000000000000000011 3
b00000000000000000000100000000010 4
b00000000000000000000000000000011 5
b00000000000000000000100000001100 6
07
b000000000000000000000100000010000 /
b00000000000000000000000000000000011 F
b00000000001100000000 1
b01101 G
b00000000001100000000000000000000 *
b00000000000000000000000000001101 +
b00000000000000000000000000000011 A
b000000000011 ,
b00000000000000000000000000001101 B
b00000000000000000000100000000010 -
1.
b00000000000000000000000000000011 &
b0001 '
0E
b00000000000000000000000000000011 =
b0010011 (
1>
b00000000000000000000100000010000 !
b00000000001100000000011010010011 ?
b00000000000000000000000000000100 "
b00000000000000000000100000010000 8
b00000000000001100000000000000000000 #
b0110 $
b00000000000001100000000000000000000 :
b00000000000000000000000000000011 ;
#11
17
#16
07
#21
17
#26
07
#31
17
#36
07
#41
17
#46
07
#51
17
#56
b00000000000000000000000000000000010 3
b00000000000000000000000000001100 B
b00000000000000000000000000000010 -
b00000000000000000000000000000010 4
0.
b00000000000000000000000000000010 &
b00000000000000000000000000000010 5
b00000000000000000000000000001100 6
b00000000000000000000000000000010 =
07
b000000000000000000000000000010000 /
0>
b00000000000000000000000000010000 !
b00000000001000000000011000010011 ?
b00000000000000000000000000000000010 F
b00000000001000000000 1
b00000000000000000000000000010000 8
b01100 G
b00000000000001000000000000000000000 #
b00000000001000000000000000000000 *
b00000000000000000000000000001100 +
b00000000000001000000000000000000000 :
b00000000000000000000000000000010 A
b000000000010 ,
b00000000000000000000000000000010 ;
#61
17
#66
07
#71
17
#76
07
#81
17
#86
07
#91
17
#96
07
#101
17
#106
b00000000000000000000000000000000011 3
b00000000000000000000000000001101 B
b00000000000000000000100000000010 -
b00000000000000000000100000000010 4
1.
b00000000000000000000000000000011 &
b00000000000000000000000000000011 5
b00000000000000000000100000001100 6
b00000000000000000000000000000011 =
07
b000000000000000000000100000010000 /
1>
b00000000000000000000100000010000 !
b00000000001100000000011010010011 ?
b00000000000000000000000000000000011 F
b00000000001100000000 1
b00000000000000000000100000010000 8
b01101 G
b00000000000001100000000000000000000 #
b00000000001100000000000000000000 *
b00000000000000000000000000001101 +
b00000000000001100000000000000000000 :
b00000000000000000000000000000011 A
b000000000011 ,
b00000000000000000000000000000011 ;
#111
17
#116
07
#121
17
#126
07
#131
17
#136
07
#141
17
#146
07
#151
17
#156
b00000000000000000000000000000000010 3
b00000000000000000000000000001100 B
b00000000000000000000000000000010 -
b00000000000000000000000000000010 4
0.
b00000000000000000000000000000010 &
b00000000000000000000000000000010 5
b00000000000000000000000000001100 6
b00000000000000000000000000000010 =
07
b000000000000000000000000000010000 /
0>
b00000000000000000000000000010000 !
b00000000001000000000011000010011 ?
b00000000000000000000000000000000010 F
b00000000001000000000 1
b00000000000000000000000000010000 8
b01100 G
b00000000000001000000000000000000000 #
b00000000001000000000000000000000 *
b00000000000000000000000000001100 +
b00000000000001000000000000000000000 :
b00000000000000000000000000000010 A
b000000000010 ,
b00000000000000000000000000000010 ;
#161
17
#166
07
#171
17
#176
07
#181
17
#186
07
#191
17
#196
07
#201
17
#206
07
#211
17
#216
07
#221
17
#226
07
#231
17
#236
07
#241
17
#246
07
#251
17
#256
07
#261
17
#266
07
#271
17
#276
07
#281
17
#286
07
#291
17
#296
07
#301
17
#306
07
#311
17
#316
07
#321
17
#326
07
#331
17
#336
07
#341
17
#346
07
#351
17
#356
b00000000000000000000000000000000011 3
b00000000000000000000000000001101 B
b00000000000000000000100000000010 -
b00000000000000000000100000000010 4
1.
b00000000000000000000000000000011 &
b00000000000000000000000000000011 5
b00000000000000000000100000001100 6
b00000000000000000000000000000011 =
07
b000000000000000000000100000010000 /
1>
b00000000000000000000100000010000 !
b00000000001100000000011010010011 ?
b00000000000000000000000000000000011 F
b00000000001100000000 1
b00000000000000000000100000010000 8
b01101 G
b00000000000001100000000000000000000 #
b00000000001100000000000000000000 *
b00000000000000000000000000001101 +
b00000000000001100000000000000000000 :
b00000000000000000000000000000011 A
b000000000011 ,
b00000000000000000000000000000011 ;
#361
17
#366
07
#371
17
#376
07
#381
17
#386
07
#391
17
#396
07
#401
17
#406
b00000000000000000000000000000000010 3
b00000000000000000000000000001100 B
b00000000000000000000000000000010 -
b00000000000000000000000000000010 4
0.
b00000000000000000000000000000010 &
b00000000000000000000000000000010 5
b00000000000000000000000000001100 6
b00000000000000000000000000000010 =
07
b000000000000000000000000000010000 /
0>
b00000000000000000000000000010000 !
b00000000001000000000011000010011 ?
b00000000000000000000000000000000010 F
b00000000001000000000 1
b00000000000000000000000000010000 8
b01100 G
b00000000000001000000000000000000000 #
b00000000001000000000000000000000 *
b00000000000000000000000000001100 +
b00000000000001000000000000000000000 :
b00000000000000000000000000000010 A
b000000000010 ,
b00000000000000000000000000000010 ;
#411
17
#416
07
#421
17
#426
07
#431
17
#436
07
#441
17
#446
07
#451
17
#456
07
#461
17
#466
07
#471
17
#476
07
#481
17
#486
07
#491
17
#496
07
#501
17
#506
b00000000000000000000000000000000011 3
b00000000000000000000000000001101 B
b00000000000000000000100000000010 -
b00000000000000000000100000000010 4
1.
b00000000000000000000000000000011 &
b00000000000000000000000000000011 5
b00000000000000000000100000001100 6
b00000000000000000000000000000011 =
07
b000000000000000000000100000010000 /
1>
b00000000000000000000100000010000 !
b00000000001100000000011010010011 ?
b00000000000000000000000000000000011 F
b00000000001100000000 1
b00000000000000000000100000010000 8
b01101 G
b00000000000001100000000000000000000 #
b00000000001100000000000000000000 *
b00000000000000000000000000001101 +
b00000000000001100000000000000000000 :
b00000000000000000000000000000011 A
b000000000011 ,
b00000000000000000000000000000011 ;
#511
17
#516
07
#521
17
#526
07
#531
17
#536
07
#541
17
#546
07
#551
17
#556
b00000000000000000000000000000000010 3
b00000000000000000000000000001100 B
b00000000000000000000000000000010 -
b00000000000000000000000000000010 4
0.
b00000000000000000000000000000010 &
b00000000000000000000000000000010 5
b00000000000000000000000000001100 6
b00000000000000000000000000000010 =
07
b000000000000000000000000000010000 /
0>
b00000000000000000000000000010000 !
b00000000001000000000011000010011 ?
b00000000000000000000000000000000010 F
b00000000001000000000 1
b00000000000000000000000000010000 8
b01100 G
b00000000000001000000000000000000000 #
b00000000001000000000000000000000 *
b00000000000000000000000000001100 +
b00000000000001000000000000000000000 :
b00000000000000000000000000000010 A
b000000000010 ,
b00000000000000000000000000000010 ;
#561
17
#566
07
#571
17
#576
07
#581
17
#586
07
#591
17
#596
07
#601
17
#606
07
#611
17
#616
07
#621
17
#626
07
#631
17
#636
07
#641
17
#646
07
#651
17
#656
b00000000000000000000000000000000011 3
b00000000000000000000000000001101 B
b00000000000000000000100000000010 -
b00000000000000000000100000000010 4
1.
b00000000000000000000000000000011 &
b00000000000000000000000000000011 5
b00000000000000000000100000001100 6
b00000000000000000000000000000011 =
07
b000000000000000000000100000010000 /
1>
b00000000000000000000100000010000 !
b00000000001100000000011010010011 ?
b00000000000000000000000000000000011 F
b00000000001100000000 1
b00000000000000000000100000010000 8
b01101 G
b00000000000001100000000000000000000 #
b00000000001100000000000000000000 *
b00000000000000000000000000001101 +
b00000000000001100000000000000000000 :
b00000000000000000000000000000011 A
b000000000011 ,
b00000000000000000000000000000011 ;
#661
17
#666
07
#671
17
#676
07
#681
17
#686
07
#691
17
#696
07
#701
17
#706
b00000000000000000000000000000000010 3
b00000000000000000000000000001100 B
b00000000000000000000000000000010 -
b00000000000000000000000000000010 4
0.
b00000000000000000000000000000010 &
b00000000000000000000000000000010 5
b00000000000000000000000000001100 6
b00000000000000000000000000000010 =
07
b000000000000000000000000000010000 /
0>
b00000000000000000000000000010000 !
b00000000001000000000011000010011 ?
b00000000000000000000000000000000010 F
b00000000001000000000 1
b00000000000000000000000000010000 8
b01100 G
b00000000000001000000000000000000000 #
b00000000001000000000000000000000 *
b00000000000000000000000000001100 +
b00000000000001000000000000000000000 :
b00000000000000000000000000000010 A
b000000000010 ,
b00000000000000000000000000000010 ;
#711
17
#716
07
#721
17
#726
07
#731
17
#736
07
#741
17
#746
07
#751
17
#756
07
#761
17
#766
07
#771
17
#776
07
#781
17
#786
07
#791
17
#796
07
#801
17
#806
07
#811
17
#816
07
#821
17
#826
07
#831
17
#836
07
#841
17
#846
07
#851
17
#856
b00000000000000000000000000000000011 3
b00000000000000000000000000001101 B
b00000000000000000000100000000010 -
b00000000000000000000100000000010 4
1.
b00000000000000000000000000000011 &
b00000000000000000000000000000011 5
b00000000000000000000100000001100 6
b00000000000000000000000000000011 =
07
b000000000000000000000100000010000 /
1>
b00000000000000000000100000010000 !
b00000000001100000000011010010011 ?
b00000000000000000000000000000000011 F
b00000000001100000000 1
b00000000000000000000100000010000 8
b01101 G
b00000000000001100000000000000000000 #
b00000000001100000000000000000000 *
b00000000000000000000000000001101 +
b00000000000001100000000000000000000 :
b00000000000000000000000000000011 A
b000000000011 ,
b00000000000000000000000000000011 ;
