test_run_dir/MSB_Counter/lab1ex2.vcd
$date
2021-10-06T01:49+0000
$end
$version
0.2
$end
$comment

$end
$timescale 1ns  $end
$scope module lab1ex2 $end
 $var wire 4 ! count $end
 $var wire 1 " _T $end
 $var wire 1 # _GEN_2 $end
 $var wire 5 $ _count_T $end
 $var wire 4 % _count_T_1 $end
 $var wire 9 & max $end
 $var wire 4 ' _GEN_1 $end
 $var wire 10 ( _max_T_1 $end
 $var wire 1 ) clock $end
 $var wire 1 * io_result $end
 $var wire 4 + _GEN_0 $end
 $var wire 1 , reset $end
$upscope $end
$enddefinitions $end
$dumpvars
0"
b0000 '
0)
0#
b00000 $
b0000 +
b0011111111 (
0*
b0000 !
b0000 %
0,
b000000000 &
$end
#0
b0001 %
b011111111 &
b0001 '
b00001 $
b0001 +
1,
#1
1)
#6
0,
0)
#11
b0001 !
b0010 %
b0010 '
b00010 $
b0010 +
1)
#16
0)
#21
b0010 !
b0011 %
b0011 '
b00011 $
b0011 +
1)
#26
0)
#31
b0011 !
b0100 %
b0100 '
b00100 $
b0100 +
1)
#36
0)
#41
b0100 !
b0101 %
b0101 '
b00101 $
b0101 +
1)
#46
0)
#51
b0101 !
b0110 %
b0110 '
b00110 $
b0110 +
1)
#56
0)
#61
b0110 !
b0111 %
b0111 '
b00111 $
b0111 +
1)
#66
0)
#71
b0111 !
b1000 %
b1000 '
b01000 $
b1000 +
1)
#76
0)
#81
b1000 !
b1001 %
1#
1*
b0000 '
b01001 $
b1001 +
1)
#86
0)
#91
b0000 !
b0001 %
0#
0*
b0001 '
b00001 $
b0001 +
1)
#96
0)
#101
b0001 !
b0010 %
b0010 '
b00010 $
b0010 +
1)
#106
0)
#111
b0010 !
b0011 %
b0011 '
b00011 $
b0011 +
1)
#116
0)
#121
b0011 !
b0100 %
b0100 '
b00100 $
b0100 +
1)
#126
0)
#131
b0100 !
b0101 %
b0101 '
b00101 $
b0101 +
1)
#136
0)
#141
b0101 !
b0110 %
b0110 '
b00110 $
b0110 +
1)
#146
0)
#151
b0110 !
b0111 %
b0111 '
b00111 $
b0111 +
1)
#156
0)
#161
b0111 !
b1000 %
b1000 '
b01000 $
b1000 +
1)
#166
0)
#171
b1000 !
b1001 %
1#
1*
b0000 '
b01001 $
b1001 +
1)
#176
0)
#181
b0000 !
b0001 %
0#
0*
b0001 '
b00001 $
b0001 +
1)
#186
0)
#191
b0001 !
b0010 %
b0010 '
b00010 $
b0010 +
1)
#196
0)
#201
b0010 !
b0011 %
b0011 '
b00011 $
b0011 +
1)
#206
0)
#211
b0011 !
b0100 %
b0100 '
b00100 $
b0100 +
1)
