test_run_dir/lab_6_task_2/lab6task2.vcd
$date
2021-09-29T15:40+0000
$end
$version
0.2
$end
$comment

$end
$timescale 1ns  $end
$scope module lab6task2 $end
 $var wire 6 ! count $end
 $var wire 3 " io_out $end
 $var wire 1 # _T $end
 $var wire 6 $ _count_T $end
 $var wire 1 % clock $end
 $var wire 6 & _GEN_0 $end
 $var wire 1 ' reset $end
$upscope $end
$enddefinitions $end
$dumpvars
0%
b000 "
b000000 $
0#
0'
b000000 !
b000000 &
$end
#0
b000001 &
1'
b000001 $
#1
1%
#6
0%
0'
#11
b000001 !
1%
b001 "
b000000 &
b000000 $
#16
0%
#21
b000000 !
1%
b000 "
b000001 &
b000001 $
#26
0%
#31
b000001 !
1%
b001 "
b000000 &
b000000 $
#36
0%
#41
b000000 !
1%
b000 "
b000001 &
b000001 $
#46
0%
#51
b000001 !
1%
b001 "
b000000 &
b000000 $
#56
0%
#61
b000000 !
1%
b000 "
b000001 &
b000001 $
#66
0%
#71
b000001 !
1%
b001 "
b000000 &
b000000 $
#76
0%
#81
b000000 !
1%
b000 "
b000001 &
b000001 $
#86
0%
#91
b000001 !
1%
b001 "
b000000 &
b000000 $
#96
0%
#101
b000000 !
1%
b000 "
b000001 &
b000001 $
#106
0%
#111
b000001 !
1%
b001 "
b000000 &
b000000 $
#116
0%
#121
b000000 !
1%
b000 "
b000001 &
b000001 $
#126
0%
#131
b000001 !
1%
b001 "
b000000 &
b000000 $
#136
0%
#141
b000000 !
1%
b000 "
b000001 &
b000001 $
#146
0%
#151
b000001 !
1%
b001 "
b000000 &
b000000 $
#156
0%
#161
b000000 !
1%
b000 "
b000001 &
b000001 $
#166
0%
#171
b000001 !
1%
b001 "
b000000 &
b000000 $
#176
0%
#181
b000000 !
1%
b000 "
b000001 &
b000001 $
#186
0%
#191
b000001 !
1%
b001 "
b000000 &
b000000 $
#196
0%
#201
b000000 !
1%
b000 "
b000001 &
b000001 $
#206
0%
#211
b000001 !
1%
b001 "
b000000 &
b000000 $
#216
0%
#221
b000000 !
1%
b000 "
b000001 &
b000001 $
#226
0%
#231
b000001 !
1%
b001 "
b000000 &
b000000 $
#236
0%
#241
b000000 !
1%
b000 "
b000001 &
b000001 $
#246
0%
#251
b000001 !
1%
b001 "
b000000 &
b000000 $
#256
0%
#261
b000000 !
1%
b000 "
b000001 &
b000001 $
