test_run_dir/Branch/Branch.vcd
$date
2021-10-08T07:00+0000
$end
$version
0.2
$end
$comment

$end
$timescale 1ns  $end
$scope module Branch $end
 $var wire 32 ! io_arg_y $end
 $var wire 1 " io_branch $end
 $var wire 1 # _io_br_taken_T_19 $end
 $var wire 1 $ _io_br_taken_T_8 $end
 $var wire 1 % _io_br_taken_T_10 $end
 $var wire 1 & _io_br_taken_T_2 $end
 $var wire 32 ' io_arg_x $end
 $var wire 1 ( _io_br_taken_T_13 $end
 $var wire 1 ) _io_br_taken_T_5 $end
 $var wire 1 * _io_br_taken_T $end
 $var wire 1 + _io_br_taken_T_12 $end
 $var wire 3 , io_fnct3 $end
 $var wire 1 - _io_br_taken_T_15 $end
 $var wire 1 . _io_br_taken_T_4 $end
 $var wire 1 / _io_br_taken_T_7 $end
 $var wire 1 0 _io_br_taken_T_18 $end
 $var wire 1 1 _io_br_taken_T_1 $end
 $var wire 1 2 clock $end
 $var wire 1 3 _io_br_taken_T_9 $end
 $var wire 1 4 _io_br_taken_T_11 $end
 $var wire 1 5 _io_br_taken_T_3 $end
 $var wire 1 6 _io_br_taken_T_14 $end
 $var wire 1 7 reset $end
 $var wire 1 8 _io_br_taken_T_6 $end
 $var wire 1 9 _io_br_taken_T_17 $end
 $var wire 1 : io_br_taken $end
$upscope $end
$enddefinitions $end
$dumpvars
0%
04
0&
05
b00000000000000000000000000000000 '
0-
0.
b00000000000000000000000000000000 !
0/
b000 ,
06
00
0(
07
0"
01
0)
08
0#
0*
09
0+
0:
02
0$
03
$end
#0
14
11
1&
1#
1*
17
#1
12
#6
13
1%
04
0&
15
b01110110001011101001100110011010 '
07
1/
b11110101111110000101111010000111 !
10
01
18
1#
02
0*
19
b100 ,
#11
12
#16
b11011110111010110101100001011111 !
1"
02
b10000101001100010000001101000100 '
1:
#21
12
#26
03
1-
0%
14
b11001111011001000110000110010011 '
16
1(
0/
b01001100010000110001110100011101 !
10
08
1#
02
19
1:
b111 ,
#31
12
#36
13
0-
1%
04
b00001111001010110101100100111001 '
06
0(
b10101001100001000011110111111101 !
10
0"
18
1#
02
19
1$
0:
b110 ,
#41
12
#46
b10101100110101011101001011011100 !
03
00
0%
0#
02
b00111100010110100100111001110101 '
16
0$
09
1+
b101 ,
#51
12
#56
b11000101111000100010000101001010 !
10
1-
14
08
1#
02
b11111011110010001001111111010001 '
19
0+
1(
b111 ,
#61
12
#66
b01001011101000000010101000010101 !
13
0-
00
1"
0#
02
b11001101101010110101000111011100 '
06
09
0(
1/
b100 ,
#71
12
#76
b11011101101001011111000101110000 !
10
1%
04
0"
18
1#
02
b00001111011010110110110000101011 '
19
0:
#81
12
#86
b01001110101011000111010011111101 !
00
0%
14
1"
08
0#
02
b01111011011010100000010101000100 '
09
1$
0/
b110 ,
#91
12
#96
03
0%
04
b01000100010101111100111000111111 '
16
b11101100011100000110100001100100 !
00
0"
18
0#
02
09
0$
1+
0:
b101 ,
#101
12
#106
0-
14
1.
b11000011001111010010100001000111 '
06
1)
b01001011001111011100110001000110 !
10
08
1#
02
09
0+
b001 ,
#111
12
#116
b11010110101000011001010010100000 !
00
04
1"
0.
18
0#
02
b00001101110111110011110100111001 '
16
1+
b101 ,
0)
#121
12
#126
0-
14
b11001111100001001000101000011000 '
06
b10000011100100101010101100000000 !
00
0"
11
08
0#
02
09
0+
0:
b000 ,
#131
12
#136
b00100101000010101111011000011101 !
13
01
02
b10110111111100111001010100010001 '
1$
b110 ,
#141
12
#146
b00001111111001111000001110101111 !
02
b00100110001111100111101000111111 '
#151
12
#156
b00100000101100111100101010010100 !
1"
02
b10111010011110000110000101101111 '
#161
12
#166
1%
04
b01010111101010110001110010010110 '
1/
b10001111001111000000101010101101 !
10
0"
18
1#
02
19
0$
0:
b100 ,
#171
12
#176
b01101110011111000110010011110101 !
03
00
0%
1"
0#
02
b00111000110001001111000110111110 '
16
09
1(
0/
b111 ,
#181
12
#186
13
0-
1%
04
b10011110111011000011110010000101 '
06
0(
b10101101101000010011000111000001 !
10
0"
18
1#
02
19
1$
0:
b110 ,
#191
12
#196
b11010011100101101010110000101000 !
03
00
0%
1"
0#
02
b10100000000000001111001010001111 '
16
0$
09
1+
b101 ,
#201
12
#206
0-
14
b11010001010111010111101101111010 '
06
b01011111101101010001000100000001 !
00
0"
11
08
0#
02
09
0+
0:
b000 ,
#211
12
#216
b10010000101011110001110100000011 !
10
1-
1"
01
1#
02
b11011111100110001000100000110000 '
16
19
1+
1:
b101 ,
#221
12
#226
b00000010101011010011100011100101 !
10
1-
14
08
1#
02
b00011111010110011111011010101100 '
19
0+
1:
1(
b111 ,
#231
12
#236
13
0-
1%
04
b01111111001101000010011010001101 '
06
0(
1/
b10110101100000101110101110001100 !
10
18
1#
02
19
1:
b100 ,
#241
12
#246
1%
04
b11110001110110011100000000010001 '
0/
b11110111001001110010100110101101 !
10
0"
18
1#
02
19
1$
0:
b110 ,
#251
12
#256
03
0%
14
b10001010101010111010001001000111 '
b10000000101111010001111101110001 !
00
1"
11
08
0#
02
09
0$
b000 ,
#261
12
#266
b11100000001010011110101111110101 !
04
01
0"
18
02
b11011111000000101100011010011100 '
16
1+
b101 ,
#271
12
#276
b10111011100011011100011111000100 !
10
1.
1#
02
b00010111100100110011011100010011 '
06
0+
b001 ,
1)
#281
12
#286
b10000000100100110000011010010110 !
13
1%
0.
02
b00100011101101100000100110111100 '
1$
19
b110 ,
0)
#291
12
#296
03
1-
0%
14
b11101110100001000111111101010101 '
16
b10001100110000111010000111111011 !
10
08
1#
02
19
0$
1+
b101 ,
#301
12
#306
b10001100110101000100110111000000 !
00
0-
04
11
18
0#
02
b00000100100010110011010000010010 '
09
06
0+
b000 ,
#311
12
#316
b01011111100000011101000000101000 !
13
14
01
08
02
b10000101011001001001100011111101 '
1$
b110 ,
#321
12
#326
b01110110101011110100011101010101 !
03
1"
11
02
b11000100110100011111100101110010 '
0$
b000 ,
#331
12
#336
b10101101001110000111101001110101 !
04
01
18
02
b00010100111000111111001110100001 '
16
1(
b111 ,
#341
12
#346
0-
04
1.
b10111001010100011101010000011101 '
06
0(
1)
b11000001101111100010000010001000 !
10
18
1#
02
09
1:
b001 ,
#351
12
#356
13
14
0.
b11000011100010111000001111011100 '
0)
b00011100100100000111011111100011 !
00
0"
08
0#
02
1$
0:
b110 ,
#361
12
#366
03
0%
04
1.
b00101101110111011111110100111100 '
1)
b01010011010110010111000010110111 !
10
18
1#
02
09
0$
b001 ,
#371
12
#376
b11101110101111110101101001000100 !
13
00
14
1"
0.
08
0#
02
b11111001000111100101011111100110 '
1/
b100 ,
0)
#381
12
#386
03
0%
04
b00001011101011001011110010100000 '
16
0/
b00101100000001010100010110000101 !
00
0"
18
0#
02
09
1+
0:
b101 ,
#391
12
#396
13
0-
1%
04
b00111111001001011100100101110100 '
06
b11110101011110100111100101110110 !
10
18
1#
02
19
1$
0+
b110 ,
#401
12
#406
b01000101010001110011010000111100 !
03
00
0%
1"
0#
02
b00110001111101100110101110111001 '
16
0$
09
1+
b101 ,
#411
12
#416
b10110100101111001101100111100001 !
11
02
b00101100011010011100100011010011 '
06
0+
b000 ,
#421
12
#426
b11100001110110100110110001100010 !
13
10
1%
01
1#
02
b01100101111100011100011111010100 '
1$
19
1:
b110 ,
#431
12
#436
03
0%
14
b11000010000111011111110101000000 '
b00110000000011010000101000110100 !
00
0"
11
08
0#
02
09
0$
0:
b000 ,
#441
12
#446
b01101000111001100000011110011010 !
10
04
01
1.
1"
18
1#
02
b01100010000100000110111110011001 '
1:
b001 ,
1)
#451
12
#456
b10011010001001010101010001011100 !
00
0"
0.
0#
02
b00011111111011111011011010001011 '
16
1+
0:
b101 ,
0)
#461
12
#466
b00010100011001010001001010111101 !
00
0-
14
11
08
0#
02
b01111001101001111010011111000101 '
06
09
0+
b000 ,
#471
12
#476
b01110011000100011101110111000101 !
04
01
1"
18
02
b01001001000111111110101111101100 '
16
1(
b111 ,
#481
12
#486
b11111000100101110000110000111001 !
02
b00110101001101101100001100100100 '
1+
0(
b101 ,
#491
12
#496
b11110011010001011001001011010101 !
13
10
1%
1#
02
b11011101101011111100010000100100 '
06
1$
19
0+
1:
b110 ,
#501
12
#506
b10011011010100101101001110101001 !
03
0%
1.
02
b01001111011111011100100111010010 '
0$
09
b001 ,
1)
#511
12
#516
b00101101000011111111100110100110 !
00
14
11
0.
0"
08
0#
02
b10100000100111010110001011011000 '
0:
b000 ,
0)
#521
12
#526
b11010111101101010100011010110110 !
04
01
1"
18
02
b01000011110101000011101110110011 '
16
1(
b111 ,
#531
12
#536
0-
14
1.
b10011100100000011111011100101010 '
06
0(
1)
b01101000100000110100100000000011 !
10
08
1#
02
09
1:
b001 ,
#541
12
#546
04
0.
b10110101111010010000101000110000 '
16
1(
0)
b11000010001000000000011100101110 !
00
0"
18
0#
02
0:
b111 ,
#551
12
#556
13
0-
14
b11100011110100010100011110011001 '
06
0(
1/
b10011011011110110101100010100101 !
00
08
0#
02
09
b100 ,
#561
12
#566
b11000011000101000010011001100011 !
10
1%
04
1"
18
1#
02
b00001001100010100010010100110011 '
19
1:
#571
12
#576
b11001111010100110101101110101111 !
03
00
0%
11
0#
02
b10110110110001100011011100011011 '
09
0:
0/
b000 ,
#581
12
#586
b00000010011001111011000111000101 !
13
14
01
0"
08
02
b10001001100000110011011101100110 '
1$
b110 ,
#591
12
#596
b11110011001100010101111001101000 !
10
1%
04
1"
18
1#
02
b00101111111011101111111101111001 '
19
1:
#601
12
#606
b01010000111001000101110011000011 !
03
00
0%
0"
11
0#
02
b00011110010100000110110110101000 '
0$
09
0:
b000 ,
#611
12
#616
b01001011111001000000011000111000 !
1"
01
02
b00011110100011110001110011101011 '
16
1(
b111 ,
#621
12
#626
13
0-
14
b01001011100010110110010111010000 '
06
0(
b00010001110010001100001111011111 !
00
0"
08
0#
02
09
1$
0:
b110 ,
#631
12
#636
b00001100011000000001101011100101 !
00
03
0%
14
11
08
0#
02
b00001100111011000010011011110100 '
09
0$
b000 ,
#641
12
#646
b11000001001011010000010100010000 !
13
10
1%
04
01
18
1#
02
b10001100110111011010000010100101 '
19
1/
b100 ,
#651
12
#656
b11100011001110001011110000001110 !
02
b01110101010101100001001001111111 '
#661
12
#666
b11011101001011101010100101011101 !
02
b00101100001001010001001100011110 '
#671
12
#676
b10001101001101100101110111101000 !
03
00
0%
0#
02
b00110100100100101001100100111011 '
16
09
1+
0/
b101 ,
#681
12
#686
1-
14
b11011001100101001011001011010110 '
1(
b01101111010001110001101110110111 !
10
1"
08
1#
02
19
0+
1:
b111 ,
#691
12
#696
0-
04
b01110000100001101100001000110100 '
0(
b11111010101101011110100100111001 !
00
0"
18
0#
02
09
1+
0:
b101 ,
#701
12
#706
13
1%
b00010111001101000001100111010011 '
06
b10110110100010110010100100010111 !
10
1"
1#
02
19
1$
0+
1:
b110 ,
#711
12
#716
b11011111111110101001101010010011 !
03
00
0%
0#
02
b01111111110010001100011110110011 '
16
0$
09
1(
0:
b111 ,
#721
12
#726
b01111100000010010100010111011000 !
10
1.
1#
02
b01110010011101101001110101111001 '
06
0(
1:
b001 ,
1)
#731
12
#736
b11001111010110100111110011010010 !
00
0"
11
0.
0#
02
b00101111011011111101011001011000 '
0:
b000 ,
0)
#741
12
#746
b00011101010011111001010001010111 !
13
14
01
08
02
b01110011111100110111010011001001 '
1/
b100 ,
#751
12
#756
b01001010011001101001101011010111 !
1"
02
b11011001001111100110000101110101 '
#761
12
#766
b00000111100100011110100011001001 !
02
b10011101110101011100100111011110 '
1$
0/
b110 ,
#771
12
#776
03
0%
04
b10011010011001110000100010101101 '
16
1(
b10110100001001010100010010000110 !
00
0"
18
0#
02
09
0$
0:
b111 ,
#781
12
#786
b00100101001100110100011001011101 !
10
1"
1.
1#
02
b00100000101001001101001010101010 '
06
0(
1:
b001 ,
1)
#791
12
#796
b00111101011001100000001011111110 !
0"
02
b00100011111010110100101011001101 '
0:
#801
12
#806
b00001000110111011001000110010010 !
13
00
14
0.
08
0#
02
b10010010110010010100110011101101 '
1/
b100 ,
0)
#811
12
#816
03
0%
04
1.
b11001110001011101000000111101011 '
0/
1)
b11100100011001000001100000011000 !
10
1"
18
1#
02
09
1:
b001 ,
#821
12
#826
b10010010000101010111001111011011 !
14
0"
08
02
b11000100111101101111100101110111 '
0:
#831
12
#836
b01101101100101011010010100100011 !
00
04
1"
0.
18
0#
02
b00001011000011101110010010111110 '
16
1+
b101 ,
0)
#841
12
#846
13
1%
b00110011100111011111001010011111 '
06
b10000000100101111010110001110001 !
10
0"
1#
02
19
1$
0+
0:
b110 ,
#851
12
#856
03
0%
14
b11111001111010011000100100111101 '
b11101011111010101101010011011110 !
00
1"
11
08
0#
02
09
0$
b000 ,
#861
12
#866
1-
14
b11011111000000001111101000000011 '
16
b01001011000010000100101001111000 !
10
0"
01
08
1#
02
19
1+
0:
b101 ,
#871
12
#876
b01110110001000011010010010110110 !
13
0-
00
0#
02
b10110000100111011010010001111010 '
06
09
0+
1/
b100 ,
#881
12
#886
b01101011110100111000110001010101 !
03
1"
11
02
b11100111110000110001100110000001 '
0/
b000 ,
#891
12
#896
b00010100011100000010100101000001 !
10
1-
01
1#
02
b11110001001011101000001111000000 '
16
19
1(
1:
b111 ,
#901
12
#906
b11001001110100110110000001001111 !
0-
1.
02
b11101111111100000011001101110110 '
06
09
0(
b001 ,
1)
#911
12
#916
b10110000111000000110100111111010 !
04
0"
18
02
b00100110010010101111101011101100 '
0:
#921
12
#926
b01111010100110111100001001100101 !
00
0.
0#
02
b01001111111100010101111000110110 '
16
1+
b101 ,
0)
#931
12
#936
b11101100100011100011000000111111 !
1"
02
b00000111000001000100010000001010 '
0+
1(
b111 ,
#941
12
#946
13
0-
14
b11100110110001110010011011001100 '
06
0(
1/
b10100111011110110111001101101111 !
00
08
0#
02
09
0:
b100 ,
#951
12
#956
03
0%
04
b10001100100111011000110000110000 '
16
0/
b10001111110010000110010110001001 !
00
0"
18
0#
02
09
1+
0:
b101 ,
#961
12
#966
b00100101100001011100010101111000 !
1"
11
02
b00000100100010010001011011110100 '
06
0+
b000 ,
#971
12
#976
b11011010001001001101110011101011 !
04
01
0"
18
02
b10010001110110001010100110011111 '
16
1(
b111 ,
#981
12
#986
b01011001100111010111100101011011 !
02
b01011000110010110001101001010110 '
#991
12
#996
0-
14
1.
b10011010101110111011011100011000 '
06
0(
1)
b00011101000111101010001111001101 !
10
08
1#
02
09
b001 ,
#1001
12
#1006
b00000000000000000000000000000000 !
00
11
0.
1&
05
02
1*
b00000000000000000000000000000000 '
b000 ,
0)
