test_run_dir/Up_and_Down_Counter/taskcounter.vcd
$date
2021-09-17T23:02+0000
$end
$version
0.2
$end
$comment

$end
$timescale 1ns  $end
$scope module taskcounter $end
 $var wire 1 ! clock $end
 $var wire 3 " _counter1_count_T_1 $end
 $var wire 3 # counter1 $end
 $var wire 1 $ io_result $end
 $var wire 1 % _counter1_T $end
 $var wire 3 & _GEN_0 $end
 $var wire 4 ' _counter1_count_T $end
 $var wire 1 ( reset $end
$upscope $end
$enddefinitions $end
$dumpvars
0%
b000 "
b0000 '
b000 &
b000 #
0$
0!
0(
$end
#0
b001 "
b001 &
b0001 '
1(
#1
1!
#6
0!
0(
#11
1!
b010 "
b010 &
b001 #
b0010 '
#16
0!
#21
1!
b011 "
b011 &
b010 #
b0011 '
#26
0!
#31
1!
b100 "
b100 &
b011 #
b0100 '
#36
0!
#41
1!
b101 "
b101 &
b100 #
b0101 '
1$
#46
0!
#51
1!
b110 "
b110 &
b101 #
b0110 '
#56
0!
#61
1!
b111 "
b111 &
b110 #
b0111 '
#66
0!
#71
1!
1%
b000 "
b000 &
b111 #
b1000 '
#76
0!
#81
1!
0%
b001 "
b001 &
b000 #
b0001 '
0$
#86
0!
#91
1!
b010 "
b010 &
b001 #
b0010 '
#96
0!
#101
1!
b011 "
b011 &
b010 #
b0011 '
#106
0!
#111
1!
b100 "
b100 &
b011 #
b0100 '
#116
0!
#121
1!
b101 "
b101 &
b100 #
b0101 '
1$
#126
0!
#131
1!
b110 "
b110 &
b101 #
b0110 '
#136
0!
#141
1!
b111 "
b111 &
b110 #
b0111 '
#146
0!
#151
1!
1%
b000 "
b000 &
b111 #
b1000 '
#156
0!
#161
1!
0%
b001 "
b001 &
b000 #
b0001 '
0$
#166
0!
#171
1!
b010 "
b010 &
b001 #
b0010 '
#176
0!
#181
1!
b011 "
b011 &
b010 #
b0011 '
#186
0!
#191
1!
b100 "
b100 &
b011 #
b0100 '
#196
0!
#201
1!
b101 "
b101 &
b100 #
b0101 '
1$
#206
0!
#211
1!
b110 "
b110 &
b101 #
b0110 '
#216
0!
#221
1!
b111 "
b111 &
b110 #
b0111 '
#226
0!
#231
1!
1%
b000 "
b000 &
b111 #
b1000 '
#236
0!
#241
1!
0%
b001 "
b001 &
b000 #
b0001 '
0$
#246
0!
#251
1!
b010 "
b010 &
b001 #
b0010 '
#256
0!
#261
1!
b011 "
b011 &
b010 #
b0011 '
#266
0!
#271
1!
b100 "
b100 &
b011 #
b0100 '
#276
0!
#281
1!
b101 "
b101 &
b100 #
b0101 '
1$
#286
0!
#291
1!
b110 "
b110 &
b101 #
b0110 '
#296
0!
#301
1!
b111 "
b111 &
b110 #
b0111 '
#306
0!
#311
1!
1%
b000 "
b000 &
b111 #
b1000 '
