test_run_dir/Lab_4_Task_2/lab4task2.vcd
$date
2021-09-23T06:29+0000
$end
$version
0.2
$end
$comment

$end
$timescale 1ns  $end
$scope module lab4task2 $end
 $var wire 7 ! OP6to0 $end
 $var wire 1 " _i_imm_T $end
 $var wire 8 # j_hi_hi_lo $end
 $var wire 63 $ result $end
 $var wire 1 % _result_T_2 $end
 $var wire 32 & s_imm $end
 $var wire 31 ' _result_T_5 $end
 $var wire 12 ( u_imm_hi $end
 $var wire 1 ) j_hi_lo $end
 $var wire 63 * _result_T_8 $end
 $var wire 5 + s_imm_lo $end
 $var wire 1 , b_hi_hi_lo $end
 $var wire 32 - _result_T_7 $end
 $var wire 32 . i_imm $end
 $var wire 6 / b_hi_lo $end
 $var wire 1 0 _result_T_1 $end
 $var wire 1 1 _result_T_4 $end
 $var wire 1 2 _result_T $end
 $var wire 10 3 j_lo_hi $end
 $var wire 7 4 s_imm_hi_lo $end
 $var wire 1 5 clock $end
 $var wire 63 6 u_imm $end
 $var wire 31 7 b_imm $end
 $var wire 12 8 i_imm_lo $end
 $var wire 18 9 b_imm_hi $end
 $var wire 20 : u_imm_lo $end
 $var wire 32 ; io_immd_se $end
 $var wire 31 < j_imm $end
 $var wire 32 = io_instr $end
 $var wire 31 > _result_T_6 $end
 $var wire 10 ? j_imm_hi $end
 $var wire 32 @ _u_imm_T_2 $end
 $var wire 1 A _result_T_3 $end
 $var wire 1 B reset $end
 $var wire 20 C i_imm_hi $end
 $var wire 4 D b_lo_hi $end
$upscope $end
$enddefinitions $end
$dumpvars
0%
b00000000000000000000000000000000 &
b0000000000 3
b00000000000000000000000000000000 ;
b0000000000000000000000000000000 >
b00000000000000000000000000000000 =
b000000000000000000000000000000000000000000000000000000000000000 6
b000000000000000000 9
b000000000000 (
b00000000000000000000 :
0"
b000000000000000000000000000000000000000000000000000000000000000 *
b0000000000 ?
02
b000000000000000000000000000000000000000000000000000000000000000 $
b00000 +
b0000000000000000000000000000000 7
05
b000000 /
b00000000000000000000000000000000 .
b0000000 !
b00000000 #
00
b000000000000 8
01
0)
b00000000000000000000000000000000 @
b00000000000000000000 C
0A
0,
b00000000000000000000000000000000 -
b0000000 4
b0000000000000000000000000000000 <
b0000000000000000000000000000000 '
0B
b0000 D
$end
#0
1B
#1
15
#6
b0000000001 3
0B
b00000000000000000000000000000100 -
b0000000000000101010100000000010 <
1%
b00000000000000000000000000000011 .
b00000000000000000000000000000100 &
05
b0010 D
b000000000000000000000000000000000000000000000000000001100101010 6
b00000000001100101010001000100011 =
b0000000000000000000000000000100 7
1)
b0100011 !
b00000000000000000000001100101010 @
b000000000011 8
b00101010 #
b000000000000000000000000000000000000000000000000000000000000100 *
b000000000000000000000000000000000000000000000000000000000000100 $
b00100 +
b00000000001100101010 :
b00000000000000000000000000000100 ;
#11
15
#16
05
#21
15
#26
05
#31
15
#36
b0000000100 3
b00000000000000000000000000000000 -
b0000000000000101000100000001000 <
0%
b00000000000000000000000000001001 .
05
b000000000000000000000000000000000000000000000000000100100101000 6
b00000000100100101000001000010011 =
b0010011 !
b00000000000000000000100100101000 @
b000000001001 8
b00101000 #
12
b000000000000000000000000000000000000000000000000000000000000000 *
b000000000000000000000000000000000000000000000000000000000001001 $
b00000000100100101000 :
b00000000000000000000000000001001 ;
#41
15
#46
b0000000010 3
b00000000000000000000000000000100 -
b0000000000000100000100000000100 <
b00000000000000000000000000000101 .
05
b000000000000000000000000000000000000000000000000000010100100000 6
b00000000010100100000001001100011 =
b0000000000000000000000000000100 >
b1100011 !
b00000000000000000000010100100000 @
b000000000101 8
b00100000 #
02
b000000000000000000000000000000000000000000000000000000000000100 *
b000000000000000000000000000000000000000000000000000000000000100 $
b00000000010100100000 :
1A
b00000000000000000000000000000100 ;
#51
15
#56
b0000000000 3
b00000000000000000000000000000000 -
b0000000000001000001000000000000 <
b00000000000000000000000000000000 .
b00000000000000000000000000000101 &
05
b000000000000000000000000000000000000000000000000000000001000001 6
b00000000000001000001001010110111 =
b0000000000000000000100000000100 7
b0000000000000000000000000000000 >
0)
b0110111 !
10
b00000000000000000000000001000001 @
b000000000000 8
b01000001 #
b000000000000000000000000000000000000000000000000000000001000001 *
b000000000000000000000000000000000000000000000000000000001000001 $
b00101 +
b00000000000001000001 :
0A
1,
b00000000000000000000000001000001 ;
#61
15
#66
b0000000100 3
b0000000000000101000100000001000 <
b00000000000000000000000000001001 .
b00000000000000000000000000000100 &
05
b000000000000000000000000000000000000000000000000000100100101000 6
b00000000100100101000001000010011 =
b0000000000000000000000000000100 7
1)
b0010011 !
00
b00000000000000000000100100101000 @
b000000001001 8
b00101000 #
12
b000000000000000000000000000000000000000000000000000000000000000 *
b000000000000000000000000000000000000000000000000000000000001001 $
b00100 +
b00000000100100101000 :
0,
b00000000000000000000000000001001 ;
#71
15
#76
b0000000000 3
b0000000000001000001000000000000 <
b00000000000000000000000000000000 .
b00000000000000000000000000000101 &
05
b000000000000000000000000000000000000000000000000000000001000001 6
b00000000000001000001001010110111 =
b0000000000000000000100000000100 7
0)
b0110111 !
10
b00000000000000000000000001000001 @
b000000000000 8
b01000001 #
02
b000000000000000000000000000000000000000000000000000000001000001 *
b000000000000000000000000000000000000000000000000000000001000001 $
b00101 +
b00000000000001000001 :
1,
b00000000000000000000000001000001 ;
#81
15
#86
b0000000001 3
b00000000000000000000000000000100 -
b0000000000000101010100000000010 <
1%
b00000000000000000000000000000011 .
b00000000000000000000000000000100 &
05
b000000000000000000000000000000000000000000000000000001100101010 6
b00000000001100101010001000100011 =
b0000000000000000000000000000100 7
1)
b0100011 !
00
b00000000000000000000001100101010 @
b000000000011 8
b00101010 #
b000000000000000000000000000000000000000000000000000000000000100 *
b000000000000000000000000000000000000000000000000000000000000100 $
b00100 +
b00000000001100101010 :
0,
b00000000000000000000000000000100 ;
#91
15
#96
b0000000100 3
b00000000000000000000000000000000 -
b0000000000000101000100000001000 <
0%
b00000000000000000000000000001001 .
05
b000000000000000000000000000000000000000000000000000100100101000 6
b00000000100100101000001000010011 =
b0010011 !
b00000000000000000000100100101000 @
b000000001001 8
b00101000 #
12
b000000000000000000000000000000000000000000000000000000000000000 *
b000000000000000000000000000000000000000000000000000000000001001 $
b00000000100100101000 :
b00000000000000000000000000001001 ;
#101
15
#106
05
#111
15
#116
b0000000010 3
b00000000000000000000000000000100 -
b0000000000000100000100000000100 <
b00000000000000000000000000000101 .
05
b000000000000000000000000000000000000000000000000000010100100000 6
b00000000010100100000001001100011 =
b0000000000000000000000000000100 >
b1100011 !
b00000000000000000000010100100000 @
b000000000101 8
b00100000 #
02
b000000000000000000000000000000000000000000000000000000000000100 *
b000000000000000000000000000000000000000000000000000000000000100 $
b00000000010100100000 :
1A
b00000000000000000000000000000100 ;
#121
15
#126
05
#131
15
#136
b0000000000 3
b00000000000000000000000000000000 -
b0000000000001000001000000000000 <
b00000000000000000000000000000000 .
b00000000000000000000000000000101 &
05
b000000000000000000000000000000000000000000000000000000001000001 6
b00000000000001000001001010110111 =
b0000000000000000000100000000100 7
b0000000000000000000000000000000 >
0)
b0110111 !
10
b00000000000000000000000001000001 @
b000000000000 8
b01000001 #
b000000000000000000000000000000000000000000000000000000001000001 *
b000000000000000000000000000000000000000000000000000000001000001 $
b00101 +
b00000000000001000001 :
0A
1,
b00000000000000000000000001000001 ;
#141
15
#146
b0000000001 3
b00000000000000000000000000000100 -
b0000000000000101010100000000010 <
1%
b00000000000000000000000000000011 .
b00000000000000000000000000000100 &
05
b000000000000000000000000000000000000000000000000000001100101010 6
b00000000001100101010001000100011 =
b0000000000000000000000000000100 7
1)
b0100011 !
00
b00000000000000000000001100101010 @
b000000000011 8
b00101010 #
b000000000000000000000000000000000000000000000000000000000000100 *
b000000000000000000000000000000000000000000000000000000000000100 $
b00100 +
b00000000001100101010 :
0,
b00000000000000000000000000000100 ;
#151
15
#156
b0000000000 3
b00000000000000000000000000000000 -
b0000000000001000001000000000000 <
0%
b00000000000000000000000000000000 .
b00000000000000000000000000000101 &
05
b000000000000000000000000000000000000000000000000000000001000001 6
b00000000000001000001001010110111 =
b0000000000000000000100000000100 7
0)
b0110111 !
10
b00000000000000000000000001000001 @
b000000000000 8
b01000001 #
b000000000000000000000000000000000000000000000000000000001000001 *
b000000000000000000000000000000000000000000000000000000001000001 $
b00101 +
b00000000000001000001 :
1,
b00000000000000000000000001000001 ;
#161
15
#166
b0000000010 3
b00000000000000000000000000000100 -
b0000000000000100000100000000100 <
b00000000000000000000000000000101 .
b00000000000000000000000000000100 &
05
b000000000000000000000000000000000000000000000000000010100100000 6
b00000000010100100000001001100011 =
b0000000000000000000000000000100 7
b0000000000000000000000000000100 >
1)
b1100011 !
00
b00000000000000000000010100100000 @
b000000000101 8
b00100000 #
b000000000000000000000000000000000000000000000000000000000000100 *
b000000000000000000000000000000000000000000000000000000000000100 $
b00100 +
b00000000010100100000 :
1A
0,
b00000000000000000000000000000100 ;
#171
15
#176
b0000000100 3
b00000000000000000000000000000000 -
b0000000000000101000100000001000 <
b00000000000000000000000000001001 .
05
b000000000000000000000000000000000000000000000000000100100101000 6
b00000000100100101000001000010011 =
b0000000000000000000000000000000 >
b0010011 !
b00000000000000000000100100101000 @
b000000001001 8
b00101000 #
12
b000000000000000000000000000000000000000000000000000000000000000 *
b000000000000000000000000000000000000000000000000000000000001001 $
b00000000100100101000 :
0A
b00000000000000000000000000001001 ;
#181
15
#186
05
#191
15
#196
b0000000010 3
b00000000000000000000000000000100 -
b0000000000000000000000000000100 <
b00000000000000000000000000000100 .
b00000000000000000000000000000001 &
05
b0000 D
b0000000000000000000000000000100 '
b000000000000000000000000000000000000000000000000000010000000000 6
b00000000010000000000000011101111 =
b0000000000000000000100000000000 7
b0000000000000000000000000000100 >
0)
b1101111 !
11
b00000000000000000000010000000000 @
b000000000100 8
b00000000 #
02
b000000000000000000000000000000000000000000000000000000000000100 *
b000000000000000000000000000000000000000000000000000000000000100 $
b00001 +
b00000000010000000000 :
1,
b00000000000000000000000000000100 ;
#201
15
#206
b0000000000000100000100000000100 <
b00000000000000000000000000000101 .
b00000000000000000000000000000100 &
05
b0010 D
b0000000000000000000000000000000 '
b000000000000000000000000000000000000000000000000000010100100000 6
b00000000010100100000001001100011 =
b0000000000000000000000000000100 7
1)
b1100011 !
01
b00000000000000000000010100100000 @
b000000000101 8
b00100000 #
b00100 +
b00000000010100100000 :
1A
0,
#211
15
#216
05
#221
15
#226
b0000000001 3
b0000000000000101010100000000010 <
1%
b00000000000000000000000000000011 .
05
b000000000000000000000000000000000000000000000000000001100101010 6
b00000000001100101010001000100011 =
b0000000000000000000000000000000 >
b0100011 !
b00000000000000000000001100101010 @
b000000000011 8
b00101010 #
b00000000001100101010 :
0A
#231
15
#236
b0000000000 3
b00000000000000000000000000000000 -
b0000000000001000001000000000000 <
0%
b00000000000000000000000000000000 .
b00000000000000000000000000000101 &
05
b000000000000000000000000000000000000000000000000000000001000001 6
b00000000000001000001001010110111 =
b0000000000000000000100000000100 7
0)
b0110111 !
10
b00000000000000000000000001000001 @
b000000000000 8
b01000001 #
b000000000000000000000000000000000000000000000000000000001000001 *
b000000000000000000000000000000000000000000000000000000001000001 $
b00101 +
b00000000000001000001 :
1,
b00000000000000000000000001000001 ;
#241
15
#246
b0000000010 3
b00000000000000000000000000000100 -
b0000000000000100000100000000100 <
b00000000000000000000000000000101 .
b00000000000000000000000000000100 &
05
b000000000000000000000000000000000000000000000000000010100100000 6
b00000000010100100000001001100011 =
b0000000000000000000000000000100 7
b0000000000000000000000000000100 >
1)
b1100011 !
00
b00000000000000000000010100100000 @
b000000000101 8
b00100000 #
b000000000000000000000000000000000000000000000000000000000000100 *
b000000000000000000000000000000000000000000000000000000000000100 $
b00100 +
b00000000010100100000 :
1A
0,
b00000000000000000000000000000100 ;
#251
15
#256
05
#261
15
#266
b0000000000 3
b00000000000000000000000000000000 -
b0000000000001000001000000000000 <
b00000000000000000000000000000000 .
b00000000000000000000000000000101 &
05
b000000000000000000000000000000000000000000000000000000001000001 6
b00000000000001000001001010110111 =
b0000000000000000000100000000100 7
b0000000000000000000000000000000 >
0)
b0110111 !
10
b00000000000000000000000001000001 @
b000000000000 8
b01000001 #
b000000000000000000000000000000000000000000000000000000001000001 *
b000000000000000000000000000000000000000000000000000000001000001 $
b00101 +
b00000000000001000001 :
0A
1,
b00000000000000000000000001000001 ;
#271
15
#276
b0000000100 3
b0000000000000101000100000001000 <
b00000000000000000000000000001001 .
b00000000000000000000000000000100 &
05
b000000000000000000000000000000000000000000000000000100100101000 6
b00000000100100101000001000010011 =
b0000000000000000000000000000100 7
1)
b0010011 !
00
b00000000000000000000100100101000 @
b000000001001 8
b00101000 #
12
b000000000000000000000000000000000000000000000000000000000000000 *
b000000000000000000000000000000000000000000000000000000000001001 $
b00100 +
b00000000100100101000 :
0,
b00000000000000000000000000001001 ;
#281
15
#286
b0000000000 3
b0000000000001000001000000000000 <
b00000000000000000000000000000000 .
b00000000000000000000000000000101 &
05
b000000000000000000000000000000000000000000000000000000001000001 6
b00000000000001000001001010110111 =
b0000000000000000000100000000100 7
0)
b0110111 !
10
b00000000000000000000000001000001 @
b000000000000 8
b01000001 #
02
b000000000000000000000000000000000000000000000000000000001000001 *
b000000000000000000000000000000000000000000000000000000001000001 $
b00101 +
b00000000000001000001 :
1,
b00000000000000000000000001000001 ;
#291
15
#296
05
#301
15
#306
05
#311
15
#316
b0000000001 3
b00000000000000000000000000000100 -
b0000000000000101010100000000010 <
1%
b00000000000000000000000000000011 .
b00000000000000000000000000000100 &
05
b000000000000000000000000000000000000000000000000000001100101010 6
b00000000001100101010001000100011 =
b0000000000000000000000000000100 7
1)
b0100011 !
00
b00000000000000000000001100101010 @
b000000000011 8
b00101010 #
b000000000000000000000000000000000000000000000000000000000000100 *
b000000000000000000000000000000000000000000000000000000000000100 $
b00100 +
b00000000001100101010 :
0,
b00000000000000000000000000000100 ;
#321
15
#326
05
#331
15
#336
b0000000100 3
b00000000000000000000000000000000 -
b0000000000000101000100000001000 <
0%
b00000000000000000000000000001001 .
05
b000000000000000000000000000000000000000000000000000100100101000 6
b00000000100100101000001000010011 =
b0010011 !
b00000000000000000000100100101000 @
b000000001001 8
b00101000 #
12
b000000000000000000000000000000000000000000000000000000000000000 *
b000000000000000000000000000000000000000000000000000000000001001 $
b00000000100100101000 :
b00000000000000000000000000001001 ;
#341
15
#346
05
#351
15
#356
05
#361
15
#366
05
#371
15
#376
b0000000010 3
b00000000000000000000000000000100 -
b0000000000000100000100000000100 <
b00000000000000000000000000000101 .
05
b000000000000000000000000000000000000000000000000000010100100000 6
b00000000010100100000001001100011 =
b0000000000000000000000000000100 >
b1100011 !
b00000000000000000000010100100000 @
b000000000101 8
b00100000 #
02
b000000000000000000000000000000000000000000000000000000000000100 *
b000000000000000000000000000000000000000000000000000000000000100 $
b00000000010100100000 :
1A
b00000000000000000000000000000100 ;
#381
15
#386
05
#391
15
#396
b0000000100 3
b00000000000000000000000000000000 -
b0000000000000101000100000001000 <
b00000000000000000000000000001001 .
05
b000000000000000000000000000000000000000000000000000100100101000 6
b00000000100100101000001000010011 =
b0000000000000000000000000000000 >
b0010011 !
b00000000000000000000100100101000 @
b000000001001 8
b00101000 #
12
b000000000000000000000000000000000000000000000000000000000000000 *
b000000000000000000000000000000000000000000000000000000000001001 $
b00000000100100101000 :
0A
b00000000000000000000000000001001 ;
#401
15
#406
b0000000001 3
b00000000000000000000000000000100 -
b0000000000000101010100000000010 <
1%
b00000000000000000000000000000011 .
05
b000000000000000000000000000000000000000000000000000001100101010 6
b00000000001100101010001000100011 =
b0100011 !
b00000000000000000000001100101010 @
b000000000011 8
b00101010 #
02
b000000000000000000000000000000000000000000000000000000000000100 *
b000000000000000000000000000000000000000000000000000000000000100 $
b00000000001100101010 :
b00000000000000000000000000000100 ;
#411
15
#416
b0000000000 3
b00000000000000000000000000000000 -
b0000000000001000001000000000000 <
0%
b00000000000000000000000000000000 .
b00000000000000000000000000000101 &
05
b000000000000000000000000000000000000000000000000000000001000001 6
b00000000000001000001001010110111 =
b0000000000000000000100000000100 7
0)
b0110111 !
10
b00000000000000000000000001000001 @
b000000000000 8
b01000001 #
b000000000000000000000000000000000000000000000000000000001000001 *
b000000000000000000000000000000000000000000000000000000001000001 $
b00101 +
b00000000000001000001 :
1,
b00000000000000000000000001000001 ;
#421
15
#426
b0000000010 3
b00000000000000000000000000000100 -
b0000000000000100000100000000100 <
b00000000000000000000000000000101 .
b00000000000000000000000000000100 &
05
b000000000000000000000000000000000000000000000000000010100100000 6
b00000000010100100000001001100011 =
b0000000000000000000000000000100 7
b0000000000000000000000000000100 >
1)
b1100011 !
00
b00000000000000000000010100100000 @
b000000000101 8
b00100000 #
b000000000000000000000000000000000000000000000000000000000000100 *
b000000000000000000000000000000000000000000000000000000000000100 $
b00100 +
b00000000010100100000 :
1A
0,
b00000000000000000000000000000100 ;
#431
15
#436
b0000000001 3
b0000000000000101010100000000010 <
1%
b00000000000000000000000000000011 .
05
b000000000000000000000000000000000000000000000000000001100101010 6
b00000000001100101010001000100011 =
b0000000000000000000000000000000 >
b0100011 !
b00000000000000000000001100101010 @
b000000000011 8
b00101010 #
b00000000001100101010 :
0A
#441
15
#446
b0000000000 3
b00000000000000000000000000000000 -
b0000000000001000001000000000000 <
0%
b00000000000000000000000000000000 .
b00000000000000000000000000000101 &
05
b000000000000000000000000000000000000000000000000000000001000001 6
b00000000000001000001001010110111 =
b0000000000000000000100000000100 7
0)
b0110111 !
10
b00000000000000000000000001000001 @
b000000000000 8
b01000001 #
b000000000000000000000000000000000000000000000000000000001000001 *
b000000000000000000000000000000000000000000000000000000001000001 $
b00101 +
b00000000000001000001 :
1,
b00000000000000000000000001000001 ;
#451
15
#456
b0000000010 3
b00000000000000000000000000000100 -
b0000000000000000000000000000100 <
b00000000000000000000000000000100 .
b00000000000000000000000000000001 &
05
b0000 D
b0000000000000000000000000000100 '
b000000000000000000000000000000000000000000000000000010000000000 6
b00000000010000000000000011101111 =
b0000000000000000000100000000000 7
b0000000000000000000000000000100 >
b1101111 !
00
11
b00000000000000000000010000000000 @
b000000000100 8
b00000000 #
b000000000000000000000000000000000000000000000000000000000000100 *
b000000000000000000000000000000000000000000000000000000000000100 $
b00001 +
b00000000010000000000 :
b00000000000000000000000000000100 ;
#461
15
#466
05
#471
15
#476
b0000000000 3
b00000000000000000000000000000000 -
b0000000000001000001000000000000 <
b00000000000000000000000000000000 .
b00000000000000000000000000000101 &
05
b0010 D
b0000000000000000000000000000000 '
b000000000000000000000000000000000000000000000000000000001000001 6
b00000000000001000001001010110111 =
b0000000000000000000100000000100 7
b0000000000000000000000000000000 >
b0110111 !
10
01
b00000000000000000000000001000001 @
b000000000000 8
b01000001 #
b000000000000000000000000000000000000000000000000000000001000001 *
b000000000000000000000000000000000000000000000000000000001000001 $
b00101 +
b00000000000001000001 :
b00000000000000000000000001000001 ;
#481
15
#486
b0000000100 3
b0000000000000101000100000001000 <
b00000000000000000000000000001001 .
b00000000000000000000000000000100 &
05
b000000000000000000000000000000000000000000000000000100100101000 6
b00000000100100101000001000010011 =
b0000000000000000000000000000100 7
1)
b0010011 !
00
b00000000000000000000100100101000 @
b000000001001 8
b00101000 #
12
b000000000000000000000000000000000000000000000000000000000000000 *
b000000000000000000000000000000000000000000000000000000000001001 $
b00100 +
b00000000100100101000 :
0,
b00000000000000000000000000001001 ;
#491
15
#496
b0000000010 3
b00000000000000000000000000000100 -
b0000000000000100000100000000100 <
b00000000000000000000000000000101 .
05
b000000000000000000000000000000000000000000000000000010100100000 6
b00000000010100100000001001100011 =
b0000000000000000000000000000100 >
b1100011 !
b00000000000000000000010100100000 @
b000000000101 8
b00100000 #
02
b000000000000000000000000000000000000000000000000000000000000100 *
b000000000000000000000000000000000000000000000000000000000000100 $
b00000000010100100000 :
1A
b00000000000000000000000000000100 ;
#501
15
#506
b0000000000000000000000000000100 <
b00000000000000000000000000000100 .
b00000000000000000000000000000001 &
05
b0000 D
b0000000000000000000000000000100 '
b000000000000000000000000000000000000000000000000000010000000000 6
b00000000010000000000000011101111 =
b0000000000000000000100000000000 7
0)
b1101111 !
11
b00000000000000000000010000000000 @
b000000000100 8
b00000000 #
b00001 +
b00000000010000000000 :
0A
1,
#511
15
#516
b0000000001 3
b0000000000000101010100000000010 <
1%
b00000000000000000000000000000011 .
b00000000000000000000000000000100 &
05
b0010 D
b0000000000000000000000000000000 '
b000000000000000000000000000000000000000000000000000001100101010 6
b00000000001100101010001000100011 =
b0000000000000000000000000000100 7
b0000000000000000000000000000000 >
1)
b0100011 !
01
b00000000000000000000001100101010 @
b000000000011 8
b00101010 #
b00100 +
b00000000001100101010 :
0,
#521
15
#526
b0000000100 3
b00000000000000000000000000000000 -
b0000000000000101000100000001000 <
0%
b00000000000000000000000000001001 .
05
b000000000000000000000000000000000000000000000000000100100101000 6
b00000000100100101000001000010011 =
b0010011 !
b00000000000000000000100100101000 @
b000000001001 8
b00101000 #
12
b000000000000000000000000000000000000000000000000000000000000000 *
b000000000000000000000000000000000000000000000000000000000001001 $
b00000000100100101000 :
b00000000000000000000000000001001 ;
#531
15
#536
b0000000001 3
b00000000000000000000000000000100 -
b0000000000000101010100000000010 <
1%
b00000000000000000000000000000011 .
05
b000000000000000000000000000000000000000000000000000001100101010 6
b00000000001100101010001000100011 =
b0100011 !
b00000000000000000000001100101010 @
b000000000011 8
b00101010 #
02
b000000000000000000000000000000000000000000000000000000000000100 *
b000000000000000000000000000000000000000000000000000000000000100 $
b00000000001100101010 :
b00000000000000000000000000000100 ;
#541
15
#546
b0000000000 3
b00000000000000000000000000000000 -
b0000000000001000001000000000000 <
0%
b00000000000000000000000000000000 .
b00000000000000000000000000000101 &
05
b000000000000000000000000000000000000000000000000000000001000001 6
b00000000000001000001001010110111 =
b0000000000000000000100000000100 7
0)
b0110111 !
10
b00000000000000000000000001000001 @
b000000000000 8
b01000001 #
b000000000000000000000000000000000000000000000000000000001000001 *
b000000000000000000000000000000000000000000000000000000001000001 $
b00101 +
b00000000000001000001 :
1,
b00000000000000000000000001000001 ;
#551
15
#556
b0000000010 3
b00000000000000000000000000000100 -
b0000000000000000000000000000100 <
b00000000000000000000000000000100 .
b00000000000000000000000000000001 &
05
b0000 D
b0000000000000000000000000000100 '
b000000000000000000000000000000000000000000000000000010000000000 6
b00000000010000000000000011101111 =
b0000000000000000000100000000000 7
b0000000000000000000000000000100 >
b1101111 !
00
11
b00000000000000000000010000000000 @
b000000000100 8
b00000000 #
b000000000000000000000000000000000000000000000000000000000000100 *
b000000000000000000000000000000000000000000000000000000000000100 $
b00001 +
b00000000010000000000 :
b00000000000000000000000000000100 ;
#561
15
#566
05
#571
15
#576
05
#581
15
#586
b0000000000000100000100000000100 <
b00000000000000000000000000000101 .
b00000000000000000000000000000100 &
05
b0010 D
b0000000000000000000000000000000 '
b000000000000000000000000000000000000000000000000000010100100000 6
b00000000010100100000001001100011 =
b0000000000000000000000000000100 7
1)
b1100011 !
01
b00000000000000000000010100100000 @
b000000000101 8
b00100000 #
b00100 +
b00000000010100100000 :
1A
0,
#591
15
#596
b0000000000 3
b00000000000000000000000000000000 -
b0000000000001000001000000000000 <
b00000000000000000000000000000000 .
b00000000000000000000000000000101 &
05
b000000000000000000000000000000000000000000000000000000001000001 6
b00000000000001000001001010110111 =
b0000000000000000000100000000100 7
b0000000000000000000000000000000 >
0)
b0110111 !
10
b00000000000000000000000001000001 @
b000000000000 8
b01000001 #
b000000000000000000000000000000000000000000000000000000001000001 *
b000000000000000000000000000000000000000000000000000000001000001 $
b00101 +
b00000000000001000001 :
0A
1,
b00000000000000000000000001000001 ;
#601
15
#606
05
#611
15
#616
05
#621
15
#626
05
#631
15
#636
b0000000010 3
b00000000000000000000000000000100 -
b0000000000000000000000000000100 <
b00000000000000000000000000000100 .
b00000000000000000000000000000001 &
05
b0000 D
b0000000000000000000000000000100 '
b000000000000000000000000000000000000000000000000000010000000000 6
b00000000010000000000000011101111 =
b0000000000000000000100000000000 7
b0000000000000000000000000000100 >
b1101111 !
00
11
b00000000000000000000010000000000 @
b000000000100 8
b00000000 #
b000000000000000000000000000000000000000000000000000000000000100 *
b000000000000000000000000000000000000000000000000000000000000100 $
b00001 +
b00000000010000000000 :
b00000000000000000000000000000100 ;
#641
15
#646
b0000000001 3
b0000000000000101010100000000010 <
1%
b00000000000000000000000000000011 .
b00000000000000000000000000000100 &
05
b0010 D
b0000000000000000000000000000000 '
b000000000000000000000000000000000000000000000000000001100101010 6
b00000000001100101010001000100011 =
b0000000000000000000000000000100 7
b0000000000000000000000000000000 >
1)
b0100011 !
01
b00000000000000000000001100101010 @
b000000000011 8
b00101010 #
b00100 +
b00000000001100101010 :
0,
#651
15
#656
b0000000000 3
b00000000000000000000000000000000 -
b0000000000001000001000000000000 <
0%
b00000000000000000000000000000000 .
b00000000000000000000000000000101 &
05
b000000000000000000000000000000000000000000000000000000001000001 6
b00000000000001000001001010110111 =
b0000000000000000000100000000100 7
0)
b0110111 !
10
b00000000000000000000000001000001 @
b000000000000 8
b01000001 #
b000000000000000000000000000000000000000000000000000000001000001 *
b000000000000000000000000000000000000000000000000000000001000001 $
b00101 +
b00000000000001000001 :
1,
b00000000000000000000000001000001 ;
#661
15
#666
05
#671
15
#676
b0000000001 3
b00000000000000000000000000000100 -
b0000000000000101010100000000010 <
1%
b00000000000000000000000000000011 .
b00000000000000000000000000000100 &
05
b000000000000000000000000000000000000000000000000000001100101010 6
b00000000001100101010001000100011 =
b0000000000000000000000000000100 7
1)
b0100011 !
00
b00000000000000000000001100101010 @
b000000000011 8
b00101010 #
b000000000000000000000000000000000000000000000000000000000000100 *
b000000000000000000000000000000000000000000000000000000000000100 $
b00100 +
b00000000001100101010 :
0,
b00000000000000000000000000000100 ;
#681
15
#686
b0000000100 3
b00000000000000000000000000000000 -
b0000000000000101000100000001000 <
0%
b00000000000000000000000000001001 .
05
b000000000000000000000000000000000000000000000000000100100101000 6
b00000000100100101000001000010011 =
b0010011 !
b00000000000000000000100100101000 @
b000000001001 8
b00101000 #
12
b000000000000000000000000000000000000000000000000000000000000000 *
b000000000000000000000000000000000000000000000000000000000001001 $
b00000000100100101000 :
b00000000000000000000000000001001 ;
#691
15
#696
b0000000010 3
b00000000000000000000000000000100 -
b0000000000000000000000000000100 <
b00000000000000000000000000000100 .
b00000000000000000000000000000001 &
05
b0000 D
b0000000000000000000000000000100 '
b000000000000000000000000000000000000000000000000000010000000000 6
b00000000010000000000000011101111 =
b0000000000000000000100000000000 7
b0000000000000000000000000000100 >
0)
b1101111 !
11
b00000000000000000000010000000000 @
b000000000100 8
b00000000 #
02
b000000000000000000000000000000000000000000000000000000000000100 *
b000000000000000000000000000000000000000000000000000000000000100 $
b00001 +
b00000000010000000000 :
1,
b00000000000000000000000000000100 ;
#701
15
#706
b0000000000 3
b00000000000000000000000000000000 -
b0000000000001000001000000000000 <
b00000000000000000000000000000000 .
b00000000000000000000000000000101 &
05
b0010 D
b0000000000000000000000000000000 '
b000000000000000000000000000000000000000000000000000000001000001 6
b00000000000001000001001010110111 =
b0000000000000000000100000000100 7
b0000000000000000000000000000000 >
b0110111 !
10
01
b00000000000000000000000001000001 @
b000000000000 8
b01000001 #
b000000000000000000000000000000000000000000000000000000001000001 *
b000000000000000000000000000000000000000000000000000000001000001 $
b00101 +
b00000000000001000001 :
b00000000000000000000000001000001 ;
#711
15
#716
b0000000010 3
b00000000000000000000000000000100 -
b0000000000000000000000000000100 <
b00000000000000000000000000000100 .
b00000000000000000000000000000001 &
05
b0000 D
b0000000000000000000000000000100 '
b000000000000000000000000000000000000000000000000000010000000000 6
b00000000010000000000000011101111 =
b0000000000000000000100000000000 7
b0000000000000000000000000000100 >
b1101111 !
00
11
b00000000000000000000010000000000 @
b000000000100 8
b00000000 #
b000000000000000000000000000000000000000000000000000000000000100 *
b000000000000000000000000000000000000000000000000000000000000100 $
b00001 +
b00000000010000000000 :
b00000000000000000000000000000100 ;
#721
15
#726
b0000000100 3
b00000000000000000000000000000000 -
b0000000000000101000100000001000 <
b00000000000000000000000000001001 .
b00000000000000000000000000000100 &
05
b0010 D
b0000000000000000000000000000000 '
b000000000000000000000000000000000000000000000000000100100101000 6
b00000000100100101000001000010011 =
b0000000000000000000000000000100 7
b0000000000000000000000000000000 >
1)
b0010011 !
01
b00000000000000000000100100101000 @
b000000001001 8
b00101000 #
12
b000000000000000000000000000000000000000000000000000000000000000 *
b000000000000000000000000000000000000000000000000000000000001001 $
b00100 +
b00000000100100101000 :
0,
b00000000000000000000000000001001 ;
#731
15
#736
b0000000010 3
b00000000000000000000000000000100 -
b0000000000000000000000000000100 <
b00000000000000000000000000000100 .
b00000000000000000000000000000001 &
05
b0000 D
b0000000000000000000000000000100 '
b000000000000000000000000000000000000000000000000000010000000000 6
b00000000010000000000000011101111 =
b0000000000000000000100000000000 7
b0000000000000000000000000000100 >
0)
b1101111 !
11
b00000000000000000000010000000000 @
b000000000100 8
b00000000 #
02
b000000000000000000000000000000000000000000000000000000000000100 *
b000000000000000000000000000000000000000000000000000000000000100 $
b00001 +
b00000000010000000000 :
1,
b00000000000000000000000000000100 ;
#741
15
#746
05
#751
15
#756
b0000000001 3
b0000000000000101010100000000010 <
1%
b00000000000000000000000000000011 .
b00000000000000000000000000000100 &
05
b0010 D
b0000000000000000000000000000000 '
b000000000000000000000000000000000000000000000000000001100101010 6
b00000000001100101010001000100011 =
b0000000000000000000000000000100 7
b0000000000000000000000000000000 >
1)
b0100011 !
01
b00000000000000000000001100101010 @
b000000000011 8
b00101010 #
b00100 +
b00000000001100101010 :
0,
#761
15
