test_run_dir/Gen_Counter/genCounter.vcd
$date
2021-09-17T10:40+0000
$end
$version
0.2
$end
$comment

$end
$timescale 1ns  $end
$scope module genCounter $end
 $var wire 1 ! clock $end
 $var wire 4 " _counter1_count_T_1 $end
 $var wire 4 # counter1 $end
 $var wire 1 $ io_result $end
 $var wire 1 % _counter1_T $end
 $var wire 4 & _GEN_0 $end
 $var wire 5 ' _counter1_count_T $end
 $var wire 1 ( reset $end
$upscope $end
$enddefinitions $end
$dumpvars
0%
b0000 "
b00000 '
0!
0$
b0000 &
b0000 #
0(
$end
#0
b0001 "
b0001 &
b00001 '
1(
#1
1!
#6
0!
0(
#11
1!
b0010 "
b0010 &
b0001 #
b00010 '
#16
0!
#21
1!
b0011 "
b0011 &
b0010 #
b00011 '
#26
0!
#31
1!
b0100 "
b0100 &
b0011 #
b00100 '
#36
0!
#41
1!
1%
b0101 "
b0000 &
b0100 #
b00101 '
#46
0!
#51
1!
0%
b0001 "
b0001 &
b0000 #
b00001 '
#56
0!
#61
1!
b0010 "
b0010 &
b0001 #
b00010 '
#66
0!
#71
1!
b0011 "
b0011 &
b0010 #
b00011 '
#76
0!
#81
1!
b0100 "
b0100 &
b0011 #
b00100 '
#86
0!
#91
1!
1%
b0101 "
b0000 &
b0100 #
b00101 '
#96
0!
#101
1!
0%
b0001 "
b0001 &
b0000 #
b00001 '
#106
0!
#111
1!
b0010 "
b0010 &
b0001 #
b00010 '
