test_run_dir/Gen_Counter/scounter.vcd
$date
2021-09-17T11:38+0000
$end
$version
0.2
$end
$comment

$end
$timescale 1ns  $end
$scope module scounter $end
 $var wire 16 ! count $end
 $var wire 1 " _T $end
 $var wire 16 # _io_result_T $end
 $var wire 17 $ _count_T $end
 $var wire 16 % _count_T_1 $end
 $var wire 16 & max $end
 $var wire 1 ' _GEN_1 $end
 $var wire 1 ( clock $end
 $var wire 16 ) _max_T_4 $end
 $var wire 1 * io_result $end
 $var wire 17 + _max_T_3 $end
 $var wire 16 , _GEN_0 $end
 $var wire 1 - reset $end
 $var wire 16 . _count_T_2 $end
$upscope $end
$enddefinitions $end
$dumpvars
b0000000000000000 %
0-
b00000000000000000 $
0'
b0000000000000000 ,
b00000000000001111 +
b0000000000000000 .
b0000000000000000 &
0(
0"
0*
b0000000000000000 )
b0000000000000000 !
b0000000000000000 #
$end
#0
1-
b0000000000000001 %
b0000000000000001 .
b0000000000001111 &
b00000000000000001 $
b0000000000000001 ,
b0000000000001111 )
#1
1(
#6
0-
0(
#11
b0000000000000001 !
b0000000000000010 %
b0000000000000010 .
b00000000000000010 $
1(
b0000000000000010 ,
#16
0(
#21
b0000000000000010 !
b0000000000000011 %
b0000000000000011 .
b00000000000000011 $
1(
b0000000000000011 ,
#26
0(
#31
b0000000000000011 !
b0000000000000100 %
b0000000000000100 .
b00000000000000100 $
1(
b0000000000000100 ,
#36
0(
#41
b0000000000000100 !
b0000000000000101 %
b0000000000000101 .
b00000000000000101 $
1(
b0000000000000101 ,
#46
0(
#51
b0000000000000101 !
b0000000000000110 %
b0000000000000110 .
b00000000000000110 $
1(
b0000000000000110 ,
#56
0(
#61
b0000000000000110 !
b0000000000000111 %
b0000000000000111 .
b00000000000000111 $
1(
b0000000000000111 ,
#66
0(
#71
b0000000000000111 !
b0000000000001000 %
b0000000000001000 .
b00000000000001000 $
1(
b0000000000001000 ,
#76
0(
#81
b0000000000001000 !
b0000000000001001 %
b0000000000001001 .
b00000000000001001 $
1(
b0000000000001001 ,
#86
0(
#91
b0000000000001001 !
b0000000000001010 %
b0000000000001010 .
b00000000000001010 $
1(
b0000000000001010 ,
#96
0(
#101
b0000000000001010 !
b0000000000001011 %
b0000000000001011 .
b00000000000001011 $
1(
b0000000000001011 ,
#106
0(
#111
b0000000000001011 !
b0000000000001100 %
b0000000000001100 .
b00000000000001100 $
1(
b0000000000001100 ,
