test_run_dir/secondtaskTest_123/secondtask.vcd
$date
2021-09-20T05:21+0000
$end
$version
0.2
$end
$comment

$end
$timescale 1ns  $end
$scope module secondtask $end
 $var wire 12 ! count $end
 $var wire 1 " _GEN_2 $end
 $var wire 1 # io_c $end
 $var wire 12 $ _GEN_5 $end
 $var wire 13 % _count_T $end
 $var wire 12 & _count_T_1 $end
 $var wire 12 ' _GEN_1 $end
 $var wire 12 ( _count_T_3 $end
 $var wire 1 ) _GEN_4 $end
 $var wire 1 * clock $end
 $var wire 1 + _GEN_0 $end
 $var wire 1 , reset $end
 $var wire 1 - indicate $end
 $var wire 13 . _count_T_2 $end
 $var wire 12 / _GEN_3 $end
$upscope $end
$enddefinitions $end
$dumpvars
b000000000000 &
b000000000000 '
0-
b000000000000 /
b000000000000 !
b0000000000000 %
b000000000000 (
0"
0)
0#
b0000000000000 .
0*
0+
b000000000000 $
0,
$end
#0
b1111111111111 %
1"
b0000000000001 .
b111111111111 &
b000000000001 '
b000000000001 $
b000000000001 (
b000000000001 /
1,
1)
#1
1-
1*
1+
#6
0*
0,
#11
b000000000001 !
b0000000000000 %
b0000000000010 .
b000000000000 &
1#
1*
b000000000010 '
b000000000010 $
b000000000010 (
b000000000000 /
#16
0*
#21
b000000000010 !
b0000000000001 %
b0000000000011 .
b000000000001 &
0#
1*
b000000000011 '
b000000000011 $
b000000000011 (
b000000000001 /
#26
0*
#31
b000000000011 !
b0000000000010 %
b0000000000100 .
b000000000010 &
1#
1*
b000000000100 '
b000000000100 $
b000000000100 (
b000000000010 /
#36
0*
#41
b000000000100 !
b0000000000011 %
b0000000000101 .
b000000000011 &
0#
1*
b000000000101 '
b000000000101 $
b000000000101 (
b000000000011 /
#46
0*
#51
b000000000101 !
b0000000000100 %
b0000000000110 .
b000000000100 &
1#
1*
b000000000110 '
b000000000110 $
b000000000110 (
b000000000100 /
#56
0*
#61
b000000000110 !
b0000000000101 %
b0000000000111 .
b000000000101 &
0#
1*
b000000000101 '
b000000000101 $
0+
b000000000111 (
b000000000101 /
0)
#66
0*
#71
b000000000101 !
0-
b0000000000100 %
0"
b0000000000110 .
b000000000100 &
1#
1*
b000000000110 '
b000000000100 $
b000000000110 (
b000000000100 /
#76
0*
#81
b000000000100 !
b0000000000011 %
b0000000000101 .
b000000000011 &
0#
1*
b000000000101 '
b000000000011 $
b000000000101 (
b000000000011 /
#86
0*
#91
b000000000011 !
b0000000000010 %
b0000000000100 .
b000000000010 &
1#
1*
b000000000100 '
b000000000010 $
b000000000100 (
b000000000010 /
#96
0*
#101
b000000000010 !
b0000000000001 %
b0000000000011 .
b000000000001 &
0#
1*
b000000000011 '
b000000000001 $
b000000000011 (
b000000000001 /
#106
0*
#111
b000000000001 !
b0000000000000 %
b0000000000010 .
b000000000000 &
1#
1*
b000000000010 '
b000000000000 $
b000000000010 (
b000000000000 /
#116
0*
#121
b000000000000 !
b1111111111111 %
1"
b0000000000001 .
b111111111111 &
0#
1*
b000000000001 '
b000000000001 $
b000000000001 (
b000000000001 /
1)
#126
0*
#131
b000000000001 !
1-
b0000000000000 %
b0000000000010 .
b000000000000 &
1#
1*
b000000000010 '
b000000000010 $
1+
b000000000010 (
b000000000000 /
#136
0*
#141
b000000000010 !
b0000000000001 %
b0000000000011 .
b000000000001 &
0#
1*
b000000000011 '
b000000000011 $
b000000000011 (
b000000000001 /
#146
0*
#151
b000000000011 !
b0000000000010 %
b0000000000100 .
b000000000010 &
1#
1*
b000000000100 '
b000000000100 $
b000000000100 (
b000000000010 /
#156
0*
#161
b000000000100 !
b0000000000011 %
b0000000000101 .
b000000000011 &
0#
1*
b000000000101 '
b000000000101 $
b000000000101 (
b000000000011 /
#166
0*
#171
b000000000101 !
b0000000000100 %
b0000000000110 .
b000000000100 &
1#
1*
b000000000110 '
b000000000110 $
b000000000110 (
b000000000100 /
#176
0*
#181
b000000000110 !
b0000000000101 %
b0000000000111 .
b000000000101 &
0#
1*
b000000000101 '
b000000000101 $
0+
b000000000111 (
b000000000101 /
0)
#186
0*
#191
b000000000101 !
0-
b0000000000100 %
0"
b0000000000110 .
b000000000100 &
1#
1*
b000000000110 '
b000000000100 $
b000000000110 (
b000000000100 /
#196
0*
#201
b000000000100 !
b0000000000011 %
b0000000000101 .
b000000000011 &
0#
1*
b000000000101 '
b000000000011 $
b000000000101 (
b000000000011 /
#206
0*
#211
b000000000011 !
b0000000000010 %
b0000000000100 .
b000000000010 &
1#
1*
b000000000100 '
b000000000010 $
b000000000100 (
b000000000010 /
#216
0*
#221
b000000000010 !
b0000000000001 %
b0000000000011 .
b000000000001 &
0#
1*
b000000000011 '
b000000000001 $
b000000000011 (
b000000000001 /
#226
0*
#231
b000000000001 !
b0000000000000 %
b0000000000010 .
b000000000000 &
1#
1*
b000000000010 '
b000000000000 $
b000000000010 (
b000000000000 /
#236
0*
#241
b000000000000 !
b1111111111111 %
1"
b0000000000001 .
b111111111111 &
0#
1*
b000000000001 '
b000000000001 $
b000000000001 (
b000000000001 /
1)
#246
0*
#251
b000000000001 !
1-
b0000000000000 %
b0000000000010 .
b000000000000 &
1#
1*
b000000000010 '
b000000000010 $
1+
b000000000010 (
b000000000000 /
#256
0*
#261
b000000000010 !
b0000000000001 %
b0000000000011 .
b000000000001 &
0#
1*
b000000000011 '
b000000000011 $
b000000000011 (
b000000000001 /
#266
0*
#271
b000000000011 !
b0000000000010 %
b0000000000100 .
b000000000010 &
1#
1*
b000000000100 '
b000000000100 $
b000000000100 (
b000000000010 /
#276
0*
#281
b000000000100 !
b0000000000011 %
b0000000000101 .
b000000000011 &
0#
1*
b000000000101 '
b000000000101 $
b000000000101 (
b000000000011 /
#286
0*
#291
b000000000101 !
b0000000000100 %
b0000000000110 .
b000000000100 &
1#
1*
b000000000110 '
b000000000110 $
b000000000110 (
b000000000100 /
#296
0*
#301
b000000000110 !
b0000000000101 %
b0000000000111 .
b000000000101 &
0#
1*
b000000000101 '
b000000000101 $
0+
b000000000111 (
b000000000101 /
0)
#306
0*
#311
b000000000101 !
0-
b0000000000100 %
0"
b0000000000110 .
b000000000100 &
1#
1*
b000000000110 '
b000000000100 $
b000000000110 (
b000000000100 /
