test_run_dir/SB/Branch.vcd
$date
2021-10-13T06:47+0000
$end
$version
0.2
$end
$comment

$end
$timescale 1ns  $end
$scope module Branch $end
 $var wire 32 ! io_arg_y $end
 $var wire 1 " _out_T_13 $end
 $var wire 1 # io_branch $end
 $var wire 1 $ _out_T_5 $end
 $var wire 1 % _out_T_10 $end
 $var wire 32 & _Equalto_T_1 $end
 $var wire 1 ' Lessthan_U $end
 $var wire 1 ( _out_T_8 $end
 $var wire 32 ) io_arg_x $end
 $var wire 3 * io_func3 $end
 $var wire 1 + _out_T_2 $end
 $var wire 1 , Greterthan_U $end
 $var wire 1 - _out_T_12 $end
 $var wire 1 . _out_T_15 $end
 $var wire 1 / _out_T_1 $end
 $var wire 1 0 Equalto $end
 $var wire 32 1 _Equalto_T $end
 $var wire 1 2 _out_T_4 $end
 $var wire 1 3 Greterthan $end
 $var wire 1 4 clock $end
 $var wire 1 5 _out_T_7 $end
 $var wire 1 6 _out_T_14 $end
 $var wire 1 7 Lessthan $end
 $var wire 1 8 _out_T_11 $end
 $var wire 1 9 _out_T_9 $end
 $var wire 1 : reset $end
 $var wire 1 ; _out_T_3 $end
 $var wire 1 < Equalto_U $end
 $var wire 1 = io_br_taken $end
 $var wire 1 > _out_T_6 $end
$upscope $end
$enddefinitions $end
$dumpvars
0%
b00000000000000000000000000000000 &
0;
0<
b000 *
0'
0=
b00000000000000000000000000000000 !
0>
06
07
0"
08
0#
09
0:
02
03
04
05
0-
0.
0/
00
b00000000000000000000000000000000 1
0(
b00000000000000000000000000000000 )
0+
0,
0$
$end
#0
10
1<
1.
19
1:
1/
1>
#1
14
#6
0<
04
0.
b01011100111110011001001010111010 &
17
0/
0>
b11101010110011000011001011000010 )
b01011100111110011001001010111010 !
00
b11101010110011000011001011000010 1
b101 *
1$
0:
1,
1;
#11
14
#16
13
1-
1%
04
1.
b00000110011101010110011001101110 &
0'
16
1(
07
1>
b00100011010110001101100011011111 )
b00000110011101010110011001101110 !
1"
b00100011010110001101100011011111 1
18
b111 *
19
0$
1,
#21
14
#26
0-
0%
04
0.
b00010110000010101011100010000011 &
06
0=
0(
1/
b00010111001010010001000001011000 )
b00010110000010101011100010000011 !
0"
b00010111001010010001000001011000 1
08
1#
b000 *
#31
14
#36
03
b01001000111100010111101110001000 !
04
b10001100001100010010010111010011 1
b01001000111100010111101110001000 &
0#
b101 *
1$
17
0/
0>
b10001100001100010010010111010011 )
#41
14
#46
13
b00000111011110001011010010011111 !
1-
04
b01001100010000001111100001101000 1
1"
1.
b00000111011110001011010010011111 &
16
07
1>
b01001100010000001111100001101000 )
#51
14
#56
b00000101000010100000111011110011 !
04
b00110100001100100000100100101001 1
b00000101000010100000111011110011 &
1#
1=
b00110100001100100000100100101001 )
#61
14
#66
03
1-
04
1.
b11100101101001001001001010001100 &
15
1'
16
1=
17
0>
b10111000011111001111010101111010 )
b11100101101001001001001010001100 !
1"
b10111000011111001111010101111010 1
18
b110 *
09
0$
0,
#71
14
#76
13
0-
04
0.
b11111100110011110110101110010011 &
05
06
0=
07
1>
b01001011110100111100110110011001 )
b11111100110011110110101110010011 !
0"
b01001011110100111100110110011001 1
08
12
b100 *
#81
14
#86
b11111001011011100000011001100101 !
04
b00111011111011001110110111101100 1
b11111001011011100000011001100101 &
02
b111 *
1(
b00111011111011001110110111101100 )
#91
14
#96
03
0-
0%
04
0.
b00110000100001100110001000001111 &
0'
06
0=
0(
17
0>
b11000101111110001000110011101001 )
b00110000100001100110001000001111 !
0"
b11000101111110001000110011101001 1
08
b101 *
19
1$
1,
#101
14
#106
13
0-
04
0.
b10111000111001110010110111111101 &
15
06
0=
07
1>
b11100111101101110110000010110011 )
b10111000111001110010110111111101 !
0"
b11100111101101110110000010110011 1
b110 *
0$
#111
14
#116
0-
04
0.
b10111101011101000110000100001011 &
05
1'
06
0=
1/
b01100101010101010110011011001010 )
b10111101011101000110000100001011 !
0"
b01100101010101010110011011001010 1
08
0#
b000 *
09
0,
#121
14
#126
03
04
1.
b01101100110000110100011100110111 &
0'
16
17
0/
0>
b10010100111101010100010101010101 )
b01101100110000110100011100110111 !
1"
b10010100111101010100010101010101 1
12
b100 *
19
1,
#131
14
#136
13
04
1.
b11000011110000001101100010100011 &
16
07
1>
b11101010010010001100000011110100 )
b11000011110000001101100010100011 !
0"
b11101010010010001100000011110100 1
02
b001 *
1+
#141
14
#146
03
1-
04
b11010010110100100101011110101001 &
15
1'
17
0>
b10001001111001001010101100100011 )
b11010010110100100101011110101001 !
1"
b10001001111001001010101100100011 1
18
b110 *
09
0+
0,
#151
14
#156
b01101010100011100000010100101100 !
03
0-
04
b00010011000100110100110010000101 1
b01101010100011100000010100101100 &
05
12
08
b100 *
17
0>
b00010011000100110100110010000101 )
#161
14
#166
b01111001111110110000000101110010 !
04
b00101111000110011111001110111011 1
0"
b01111001111110110000000101110010 &
02
b001 *
1+
b00101111000110011111001110111011 )
#171
14
#176
13
04
0.
b01000110100100000111110100100111 &
0'
06
0=
07
1>
b01000111001111001100110010010110 )
b01000110100100000111110100100111 !
b01000111001111001100110010010110 1
1#
12
b100 *
19
0+
1,
#181
14
#186
03
04
0.
b00001010000111110000000101011000 &
06
0=
17
1/
0>
b10101000100100001100010010111101 )
b00001010000111110000000101011000 !
0"
b10101000100100001100010010111101 1
0#
02
b000 *
#191
14
#196
b01001111100011100001111010000101 !
04
b11011001010111001101101000011111 1
b01001111100011100001111010000101 &
1#
b101 *
1$
0/
b11011001010111001101101000011111 )
#201
14
#206
1-
1%
04
1.
b01100011011011100001001000100101 &
16
1=
1(
b11100111011100110000110011001101 )
b01100011011011100001001000100101 !
1"
b11100111011100110000110011001101 1
18
b111 *
0$
#211
14
#216
0-
0%
04
0.
b00000011100010100011011100100010 &
06
0=
0(
1/
b10110101110010110010000100001101 )
b00000011100010100011011100100010 !
0"
b10110101110010110010000100001101 1
08
0#
b000 *
#221
14
#226
13
1-
1%
04
1.
b11010010000111100011000101000011 &
16
1(
07
0/
1>
b11111100010111011011011111001001 )
b11010010000111100011000101000011 !
1"
b11111100010111011011011111001001 1
18
b111 *
#231
14
#236
03
0-
0%
04
0.
b11111110001111100000010001111100 &
1'
06
0(
17
1/
0>
b10000010001000011101001010100010 )
b11111110001111100000010001111100 !
0"
b10000010001000011101001010100010 1
08
b000 *
09
0,
#241
14
#246
13
04
1.
b11001110100011111000000010010110 &
16
1=
07
0/
1>
b00110110000101111110111001001100 )
b11001110100011111000000010010110 !
b00110110000101111110111001001100 1
1#
b001 *
1+
#251
14
#256
03
04
b11110000000100011110011010110100 &
0=
17
0>
b11000110010000000100100100001101 )
b11110000000100011110011010110100 !
1"
b11000110010000000100100100001101 1
0#
12
b100 *
0+
#261
14
#266
04
0.
b01110011110011010100000110011010 &
0'
06
0=
1/
b11101001010110101111110001100100 )
b01110011110011010100000110011010 !
0"
b11101001010110101111110001100100 1
1#
02
b000 *
19
1,
#271
14
#276
b10100100010111001110001011001000 !
13
04
b11010100110110110001100001001010 1
b10100100010111001110001011001000 &
07
1>
b11010100110110110001100001001010 )
#281
14
#286
b00001000011001001010010110111110 !
03
04
b10110010101011100011101110010000 1
b00001000011001001010010110111110 &
0#
17
0>
b10110010101011100011101110010000 )
#291
14
#296
03
04
b01101010011111010101000000001110 &
1'
1(
17
0/
0>
b00101100111000100000100000111011 )
b01101010011111010101000000001110 !
b00101100111000100000100000111011 1
b111 *
09
0,
#301
14
#306
b01101100111011010111000000000000 !
04
b00001110101110111001101111111100 1
b01101100111011010111000000000000 &
b101 *
1$
0(
b00001110101110111001101111111100 )
#311
14
#316
b01010011101001101100110011110100 !
04
b11001111010110111011010000001000 1
b01010011101001101100110011110100 &
1#
b000 *
0'
19
0$
1/
1,
b11001111010110111011010000001000 )
#321
14
#326
13
b11000001100111111010001111001010 !
04
b01010111000111101010100100000000 1
b11000001100111111010001111001010 &
1'
09
07
1>
b01010111000111101010100100000000 )
0,
#331
14
#336
b00000111010001101101011011110110 !
04
b00011100000010011100101010110100 1
b00000111010001101101011011110110 &
0'
19
1,
b00011100000010011100101010110100 )
#341
14
#346
b00010110001011001011110100001100 !
04
b01110100110010010010010011010110 1
b00010110001011001011110100001100 &
0#
15
b110 *
0/
b01110100110010010010010011010110 )
#351
14
#356
13
1-
1%
04
1.
b10000100111000101010000111100001 &
05
16
1=
1(
07
1>
b11000011011110000010110100000001 )
b10000100111000101010000111100001 !
1"
b11000011011110000010110100000001 1
18
1#
b111 *
#361
14
#366
03
0-
0%
04
0.
b11110110000010100010110110011010 &
1'
06
0=
0(
17
1/
0>
b11110100111011011001011110011100 )
b11110110000010100010110110011010 !
0"
b11110100111011011001011110011100 1
08
0#
b000 *
09
0,
#371
14
#376
13
b10110011100011100000101001000110 !
04
b00001100010001000110010010000110 1
b10110011100011100000101001000110 &
07
1>
b00001100010001000110010010000110 )
#381
14
#386
03
04
1.
b01010100101011100001101111001000 &
16
1=
17
0/
0>
b00000101001100010110110110001010 )
b01010100101011100001101111001000 !
b00000101001100010110110110001010 1
1#
b001 *
1+
#391
14
#396
13
04
0.
b10100111110101001011111101000010 &
1'
06
0=
07
1>
b01010100101100100011000000001110 )
b10100111110101001011111101000010 !
b01010100101100100011000000001110 1
0#
12
b100 *
09
0+
0,
#401
14
#406
1-
04
1.
b11110010001011101001111001000100 &
16
1=
b00101110111101011000000001110101 )
b11110010001011101001111001000100 !
1"
b00101110111101011000000001110101 1
1#
02
b101 *
1$
#411
14
#416
b10111000011000111111111101101100 !
0-
04
b01100110010001010010000100110011 1
0"
b10111000011000111111111101101100 &
b001 *
0$
1+
b01100110010001010010000100110011 )
#421
14
#426
04
0.
b00110110011111101111000100110100 &
0'
06
0=
b01010011000011010010100010000100 )
b00110110011111101111000100110100 !
b01010011000011010010100010000100 1
12
b100 *
19
0+
1,
#431
14
#436
13
1-
04
1.
b11010011001101001000010100011111 &
16
0=
07
1>
b11100000010101101000011100111011 )
b11010011001101001000010100011111 !
1"
b11100000010101101000011100111011 1
0#
02
b101 *
1$
#441
14
#446
04
b10100001011011010110000010010000 &
15
1'
1=
b01011110100000010011000000110001 )
b10100001011011010110000010010000 !
b01011110100000010011000000110001 1
18
1#
b110 *
09
0$
0,
#451
14
#456
0-
04
0.
b10100111101000010111110111101010 &
0'
06
0=
b11101101101110100010001100110011 )
b10100111101000010111110111101010 !
0"
b11101101101110100010001100110011 1
08
19
1,
#461
14
#466
03
0-
04
0.
b11101100110001111110001111000010 &
05
1'
06
0=
1(
17
0>
b11001001001111010100011110000011 )
b11101100110001111110001111000010 !
0"
b11001001001111010100011110000011 1
08
0#
b111 *
09
0,
#471
14
#476
13
b10100001000000101010100101010100 !
04
b01100001101110110110000101001010 1
b10100001000000101010100101010100 &
07
1>
b01100001101110110110000101001010 )
#481
14
#486
03
04
1.
b01111101111011001010011001111100 &
16
0(
17
0>
b00011000000000111101001010001010 )
b01111101111011001010011001111100 !
1"
b00011000000000111101001010001010 1
12
b100 *
#491
14
#496
04
0.
b11110000010001001111101011010101 &
1'
06
1/
b10101111010100000001001101110000 )
b11110000010001001111101011010101 !
0"
b10101111010100000001001101110000 1
02
b000 *
09
0,
#501
14
#506
13
b10100001110001101111101011011001 !
04
b00011110111111010010111100011100 1
b10100001110001101111101011011001 &
b111 *
1(
07
0/
1>
b00011110111111010010111100011100 )
#511
14
#516
b11110100110111100101101100010001 !
04
b01100011100011001110100100110000 1
b11110100110111100101101100010001 &
b000 *
0(
1/
b01100011100011001110100100110000 )
#521
14
#526
03
b10100011000100000111000010110111 !
04
b10001000111011001100110111001110 1
b10100011000100000111000010110111 &
1#
b111 *
1(
17
0/
0>
b10001000111011001100110111001110 )
#531
14
#536
b11000101100101100110010001011000 !
04
b10001111011100110010000011001010 1
1"
1.
b11000101100101100110010001011000 &
0#
12
b100 *
16
0(
b10001111011100110010000011001010 )
#541
14
#546
13
1-
04
1.
b00101011111000010000111001010100 &
0'
16
07
1>
b01110011110001111011101000110101 )
b00101011111000010000111001010100 !
1"
b01110011110001111011101000110101 1
02
b101 *
19
1$
1,
#551
14
#556
13
0-
04
0.
b11010011001101110011011001011011 &
1'
06
07
1/
1>
b00000110010101100010110110010101 )
b11010011001101110011011001011011 !
0"
b00000110010101100010110110010101 1
b000 *
09
0$
0,
#561
14
#566
13
04
1.
b10100010011010001110011000101000 &
0'
16
1=
07
0/
1>
b10100101010101010110111001011111 )
b10100010011010001110011000101000 !
b10100101010101010110111001011111 1
1#
b001 *
19
1+
1,
#571
14
#576
1-
04
b00101001100011101011110100101111 &
0'
0=
b01101010100110110100111110010011 )
b00101001100011101011110100101111 !
1"
b01101010100110110100111110010011 1
0#
b101 *
19
1$
0+
1,
#581
14
#586
13
0-
04
0.
b10011010010110001000011000000010 &
06
0=
07
1>
b10101100111011010000110110001100 )
b10011010010110001000011000000010 !
0"
b10101100111011010000110110001100 1
1#
12
b100 *
0$
#591
14
#596
13
1-
04
1.
b10010001011110100000011110001000 &
0'
16
1=
07
1>
b10010011101101000101100001010110 )
b10010001011110100000011110001000 !
1"
b10010011101101000101100001010110 1
02
b101 *
19
1$
1,
#601
14
#606
b11010010010001001111101101100110 !
0-
04
b00010001100001100110001000110010 1
0"
b11010010010001001111101101100110 &
b001 *
1'
09
0$
1+
0,
b00010001100001100110001000110010 )
#611
14
#616
b01001000010000011000100000101110 !
03
04
b00000011001100100001100100010011 1
b01001000010000011000100000101110 &
0#
0=
17
0>
b00000011001100100001100100010011 )
#621
14
#626
04
0.
b00001011011101110110100100100110 &
0'
06
0=
b10100000011101110011101100110000 )
b00001011011101110110100100100110 !
b10100000011101110011101100110000 1
1#
b101 *
19
1$
0+
1,
#631
14
#636
13
1-
04
1.
b10000000100101100101111011000100 &
1'
16
1=
07
1>
b01111100111000100011011000000100 )
b10000000100101100101111011000100 !
1"
b01111100111000100011011000000100 1
09
0,
#641
14
#646
b11011100010101110110101000111111 !
04
b11100000100100110000010001010001 1
b11011100010101110110101000111111 &
0'
19
1,
b11100000100100110000010001010001 )
#651
14
#656
03
0-
04
0.
b11100111010001100000001110111010 &
1'
06
0=
17
1/
0>
b10111100010111110101101100000011 )
b11100111010001100000001110111010 !
0"
b10111100010111110101101100000011 1
0#
b000 *
09
0$
0,
#661
14
#666
13
1-
1%
04
1.
b00100111001110101011110111110110 &
0'
16
1(
07
0/
1>
b01000010001110111011011000000101 )
b00100111001110101011110111110110 !
1"
b01000010001110111011011000000101 1
18
b111 *
19
1,
#671
14
#676
13
0-
0%
04
0.
b11000100011110101111001110010000 &
1'
06
0(
07
1/
1>
b00000010100010100000110101100100 )
b11000100011110101111001110010000 !
0"
b00000010100010100000110101100100 1
08
b000 *
09
0,
#681
14
#686
03
b01011010000110111111100100110011 !
04
b10100110100010000111100001011011 1
b01011010000110111111100100110011 &
0'
19
17
0>
b10100110100010000111100001011011 )
1,
#691
14
#696
03
04
1.
b01111001010111100011010101001101 &
1'
16
17
0/
0>
b01011100010010111001011100010011 )
b01111001010111100011010101001101 !
b01011100010010111001011100010011 1
b001 *
09
1+
0,
#701
14
#706
b11111100110011010011100100011110 !
13
1-
04
b01101001001101111001010101000010 1
1"
b11111100110011010011100100011110 &
b101 *
1$
0+
07
1>
b01101001001101111001010101000010 )
#711
14
#716
03
0-
04
0.
b01010100011001101101100001000000 &
06
1(
17
0>
b00011011000010111100011011101111 )
b01010100011001101101100001000000 !
0"
b00011011000010111100011011101111 1
b111 *
0$
#721
14
#726
0-
0%
04
0.
b01001011111010110001001011111000 &
0'
06
0=
0(
b11111001111011101001011000000001 )
b01001011111010110001001011111000 !
0"
b11111001111011101001011000000001 1
08
1#
b101 *
19
1$
1,
#731
14
#736
b01101011110110011100010011110101 !
04
b11000011101001011000001001100110 1
b01101011110110011100010011110101 &
b11000011101001011000001001100110 )
#741
14
#746
13
1-
1%
04
1.
b11011100010111110011110100111100 &
16
0=
1(
07
1>
b11011100100101001010011111110100 )
b11011100010111110011110100111100 !
1"
b11011100100101001010011111110100 1
18
0#
b111 *
0$
#751
14
#756
1-
0%
04
1.
b00100001001011010111110101111010 &
0'
16
0(
b01111011101001010110010001010010 )
b00100001001011010111110101111010 !
1"
b01111011101001010110010001010010 1
08
b101 *
19
1$
1,
#761
14
#766
b00101110111010011010110111110111 !
04
b01010101100110001010010010001001 1
b00101110111010011010110111110111 &
b01010101100110001010010010001001 )
#771
14
#776
13
1-
04
1.
b10000000011100101010100011010100 &
16
1=
07
1>
b10110011011110001110010100010011 )
b10000000011100101010100011010100 !
1"
b10110011011110001110010100010011 1
1#
#781
14
#786
b00011010001010100010101001100100 !
04
b00101000111101010101100001111010 1
b00011010001010100010101001100100 &
0'
19
1,
b00101000111101010101100001111010 )
#791
14
#796
03
0-
04
1.
b00010111110010111000010110111100 &
16
1=
17
0>
b11110000001010111100011111101101 )
b00010111110010111000010110111100 !
0"
b11110000001010111100011111101101 1
b001 *
0$
1+
#801
14
#806
b01100101010000111000001111001011 !
03
04
b01011001000000111110011001001101 1
b01100101010000111000001111001011 &
0#
1'
09
0=
17
0,
b01011001000000111110011001001101 )
0>
#811
14
#816
b01111011101000011010000010011111 !
04
b01011101101001001100100110100100 1
1"
b01111011101000011010000010011111 &
1#
12
b100 *
1=
0+
b01011101101001001100100110100100 )
#821
14
#826
b01110010101011001111110110011100 !
04
b01000111111001010110000000001001 1
0"
0.
b01110010101011001111110110011100 &
0#
02
b111 *
06
0=
1(
b01000111111001010110000000001001 )
#831
14
#836
13
0-
0%
04
1.
b00100111111010100110100011010101 &
0'
16
1=
0(
07
1>
b01101100010000011100110001010110 )
b00100111111010100110100011010101 !
0"
b01101100010000011100110001010110 1
08
1#
b001 *
19
1+
1,
#841
14
#846
13
1-
1%
04
b10001011010111011001100011000111 &
1(
07
1>
b10101010110000011111010000111011 )
b10001011010111011001100011000111 !
1"
b10101010110000011111010000111011 1
18
b111 *
0+
#851
14
#856
03
0-
0%
04
0.
b00011100101010001000000100100000 &
06
0=
0(
17
0>
b10010111011111101111110010011000 )
b00011100101010001000000100100000 !
0"
b10010111011111101111110010011000 1
08
b101 *
1$
#861
14
#866
13
0-
04
0.
b00001011011100000100000001011110 &
06
0=
07
1/
1>
b01100100100011010100101000101000 )
b00001011011100000100000001011110 !
0"
b01100100100011010100101000101000 1
0#
b000 *
0$
#871
14
#876
1-
04
1.
b10011111001100001110011101101000 &
15
1'
16
1=
0/
b01111000001110111010101111010101 )
b10011111001100001110011101101000 !
1"
b01111000001110111010101111010101 1
18
1#
b110 *
09
0,
#881
14
#886
0-
04
0.
b00110011111011110001001101101111 &
05
0'
06
0=
b00111101101011001110100101010100 )
b00110011111011110001001101101111 !
0"
b00111101101011001110100101010100 1
08
0#
12
b100 *
19
1,
#891
14
#896
03
04
1.
b00111001110100000100111110110110 &
1'
16
1=
17
0>
b00011001011100101101101111100011 )
b00111001110100000100111110110110 !
1"
b00011001011100101101101111100011 1
1#
09
0,
#901
14
#906
b11000110110111110100100000011011 !
13
04
b00000010000001101100100000110100 1
0"
0.
b11000110110111110100100000011011 &
0#
06
0=
07
1>
b00000010000001101100100000110100 )
#911
14
#916
03
1-
1%
04
1.
b00001011011111100100111001101111 &
0'
16
1(
17
0>
b11001011000111001011011111100111 )
b00001011011111100100111001101111 !
1"
b11001011000111001011011111100111 1
18
02
b111 *
19
1,
#921
14
#926
13
b01011100001011100110001111111011 !
04
b01101110111000110101111000101111 1
b01011100001011100110001111111011 &
07
1>
b01101110111000110101111000101111 )
#931
14
#936
13
0-
0%
04
1.
b11111000100110010010110111010010 &
1'
16
1=
0(
07
1>
b01000001101010010111011001101011 )
b11111000100110010010110111010010 !
0"
b01000001101010010111011001101011 1
08
1#
b001 *
09
1+
0,
#941
14
#946
b11010101000001001100010110110100 !
1-
04
b01111000111011111101010011011011 1
1"
b11010101000001001100010110110100 &
b101 *
1$
0+
b01111000111011111101010011011011 )
#951
14
#956
03
0-
04
0.
b01101111011011101000101010110100 &
06
0=
17
1/
0>
b00001010010111010110000010111101 )
b01101111011011101000101010110100 !
0"
b00001010010111010110000010111101 1
b000 *
0$
#961
14
#966
b10111000100000001011101111011001 !
13
04
b01011111110010100011010001110101 1
b10111000100000001011101111011001 &
07
1>
b01011111110010100011010001110101 )
#971
14
#976
03
04
1.
b01101110110110100001010001111010 &
16
1=
17
0/
0>
b01010011000010001111101110001011 )
b01101110110110100001010001111010 !
b01010011000010001111101110001011 1
b001 *
1+
#981
14
#986
b00010110001110001010010100000010 !
13
04
b00101011000110101010011110100010 1
b00010110001110001010010100000010 &
0#
0'
19
0=
07
1,
b00101011000110101010011110100010 )
1>
#991
14
#996
03
1-
04
b11100101110001010000110001010111 &
15
1'
17
0>
b11000111011001111000110010111101 )
b11100101110001010000110001010111 !
1"
b11000111011001111000110010111101 1
18
b110 *
09
0+
0,
#1001
14
#1006
13
0-
04
0.
b11000001010110011101010100101010 &
05
06
0=
1(
07
1>
b00010100100100100011001001100101 )
b11000001010110011101010100101010 !
0"
b00010100100100100011001001100101 1
08
1#
b111 *
#1011
14
#1016
b10000111000011100101111111001000 !
04
b00100101000110010111101010010010 1
1.
b10000111000011100101111111001000 &
0#
b001 *
16
1+
0(
b00100101000110010111101010010010 )
#1021
14
#1026
03
04
0.
b00001000000011010011110001001101 &
0'
06
17
1/
0>
b11101101011110000111100001100001 )
b00001000000011010011110001001101 !
b11101101011110000111100001100001 1
b000 *
19
0+
1,
#1031
14
#1036
b11011001100111000111101001001101 !
13
04
b11101001111101110011111111111110 1
1.
b11011001100111000111101001001101 &
b001 *
16
1+
07
0/
1>
b11101001111101110011111111111110 )
#1041
14
#1046
b00100111001110100000101001000010 !
04
b00111100111111110110111001010000 1
b00100111001110100000101001000010 &
1#
0'
19
1=
1,
b00111100111111110110111001010000 )
#1051
14
#1056
03
1-
04
b11000111010011110010101001101001 &
15
1'
0=
17
0>
b10101100100111001111001001000011 )
b11000111010011110010101001101001 !
1"
b10101100100111001111001001000011 1
18
0#
b110 *
09
0+
0,
#1061
14
#1066
13
0-
04
0.
b10010000000010011100101111010110 &
05
06
0=
07
1/
1>
b00000001100111010001001011000011 )
b10010000000010011100101111010110 !
0"
b00000001100111010001001011000011 1
08
1#
b000 *
#1071
14
#1076
b10111010011110010011010111011101 !
04
b11000101110011011001001111001110 1
b10111010011110010011010111011101 &
0#
15
b110 *
0'
19
0/
1,
b11000101110011011001001111001110 )
#1081
14
#1086
1-
04
1.
b00001011111110001011110100101010 &
05
0'
16
1=
b00100010011100001000101000011100 )
b00001011111110001011110100101010 !
1"
b00100010011100001000101000011100 1
08
1#
b101 *
19
1$
1,
#1091
14
#1096
13
0-
04
0.
b10010111101101100111100100100001 &
15
06
0=
07
1>
b10101111111010001011000001010100 )
b10010111101101100111100100100001 !
0"
b10101111111010001011000001010100 1
0#
b110 *
0$
#1101
14
#1106
03
0-
04
1.
b00001011000000000100110101001111 &
05
0'
16
17
0>
b10001001011110010011100111001001 )
b00001011000000000100110101001111 !
0"
b10001001011110010011100111001001 1
08
b001 *
19
1+
1,
#1111
14
#1116
13
1-
04
b10001100100111001010111000100011 &
1'
07
1>
b00100001011000111111111000101101 )
b10001100100111001010111000100011 !
1"
b00100001011000111111111000101101 1
b101 *
09
1$
0+
0,
#1121
14
#1126
b00001110110010010000111100100000 !
03
0-
04
b00000011011000111011111011000011 1
0"
0.
b00001110110010010000111100100000 &
06
17
0>
b00000011011000111011111011000011 )
#1131
14
#1136
13
0-
04
0.
b11011010001010100011011001000011 &
1'
06
0=
07
1/
1>
b01011101010011100000000011110001 )
b11011010001010100011011001000011 !
0"
b01011101010011100000000011110001 1
1#
b000 *
09
0$
0,
#1141
14
#1146
13
04
b10010011000011001001001101100000 &
0'
07
0/
1>
b10101001001010011101101101000110 )
b10010011000011001001001101100000 !
b10101001001010011101101101000110 1
12
b100 *
19
1,
#1151
14
#1156
1-
04
1.
b11100111001101111000001110001111 &
1'
16
b01110010100011011110100101010001 )
b11100111001101111000001110001111 !
1"
b01110010100011011110100101010001 1
0#
02
b101 *
09
1$
0,
#1161
14
#1166
0-
04
0.
b11011111101001101110100000010100 &
06
0=
1/
b00101001111101111011011111010010 )
b11011111101001101110100000010100 !
0"
b00101001111101111011011111010010 1
1#
b000 *
0$
#1171
14
#1176
1-
04
1.
b00010010110011001111110100111100 &
0'
16
1=
0/
b01010101001000000010111000111000 )
b00010010110011001111110100111100 !
1"
b01010101001000000010111000111000 1
b101 *
19
1$
1,
#1181
14
#1186
03
0-
04
0.
b01110001100010101011100100100010 &
15
06
0=
17
0>
b10001011111110100001001101100011 )
b01110001100010101011100100100010 !
0"
b10001011111110100001001101100011 1
0#
b110 *
0$
#1191
14
#1196
0-
04
0.
b11011011010110000111101101100101 &
05
1'
06
0=
1/
b10001101001101101001101100100010 )
b11011011010110000111101101100101 !
0"
b10001101001101101001101100100010 1
08
1#
b000 *
09
0,
#1201
14
#1206
13
1-
04
1.
b10101110000110100100111000101011 &
16
1=
07
0/
1>
b01001000001001100011111011101101 )
b10101110000110100100111000101011 !
1"
b01001000001001100011111011101101 1
b101 *
1$
#1211
14
#1216
b00000101100100101011011000000111 !
1%
04
b00001100001001011100111110111100 1
b00000101100100101011011000000111 &
18
b111 *
0'
19
0$
1(
1,
b00001100001001011100111110111100 )
#1221
14
#1226
0-
0%
04
0.
b00101101100100101110000110100101 &
06
0=
0(
b00111010111101100000000000011010 )
b00101101100100101110000110100101 !
0"
b00111010111101100000000000011010 1
08
0#
12
b100 *
#1231
14
#1236
13
04
0.
b11011111101101100100001100111101 &
15
06
07
1>
b11101111101010010110110010111110 )
b11011111101101100100001100111101 !
0"
b11101111101010010110110010111110 1
1#
02
b110 *
#1241
14
#1246
03
0-
04
0.
b01011110011111110000110100111101 &
05
1'
06
0=
17
1/
0>
b00011001101101101011011101001000 )
b01011110011111110000110100111101 !
0"
b00011001101101101011011101001000 1
08
0#
b000 *
09
0,
#1251
14
#1256
b10001010101101110000000010111000 !
13
04
b00110110100000110110101000000101 1
b10001010101101110000000010111000 &
12
b100 *
07
0/
1>
b00110110100000110110101000000101 )
#1261
14
#1266
1-
04
1.
b10011010110010000100011101101100 &
0'
16
b10100100101011000110010010111101 )
b10011010110010000100011101101100 !
1"
b10100100101011000110010010111101 1
02
b101 *
19
1$
1,
#1271
14
#1276
03
0-
04
0.
b00110110101100100000010010000010 &
06
17
1/
0>
b10111111000100100101000111110100 )
b00110110101100100000010010000010 !
0"
b10111111000100100101000111110100 1
b000 *
0$
#1281
14
#1286
b00000000001111101010111001011000 !
04
b11111001001001100110100100101101 1
1"
1.
b00000000001111101010111001011000 &
1#
12
b100 *
16
1=
0/
b11111001001001100110100100101101 )
#1291
14
#1296
03
04
0.
b01110001000100110111000011110100 &
1'
06
0=
17
1/
0>
b00101110011011010101111000001100 )
b01110001000100110111000011110100 !
0"
b00101110011011010101111000001100 1
0#
02
b000 *
09
0,
#1301
14
#1306
b10110111100010011001101111101110 !
13
04
b01011110111111010001110101101111 1
b10110111100010011001101111101110 &
12
b100 *
07
0/
1>
b01011110111111010001110101101111 )
#1311
14
#1316
b01010101001100001100011111110101 !
04
b01100110001001001011000011001010 1
b01010101001100001100011111110101 &
1#
02
b000 *
0'
19
1/
1,
b01100110001001001011000011001010 )
#1321
14
#1326
b10000110101010101011111100111101 !
13
04
b11111010000001001001110101111011 1
b10000110101010101011111100111101 &
0#
12
b100 *
07
0/
1>
b11111010000001001001110101111011 )
#1331
14
#1336
b10010010100100111001100101110101 !
04
b00000101001011110010100011000010 1
1.
b10010010100100111001100101110101 &
02
b001 *
1'
09
16
1+
0,
b00000101001011110010100011000010 )
#1341
14
#1346
03
04
0.
b00001100110100001011011100010101 &
0'
06
0=
17
1/
0>
b10001101000100100110001010100111 )
b00001100110100001011011100010101 !
b10001101000100100110001010100111 1
1#
b000 *
19
0+
1,
#1351
14
#1356
13
1-
04
1.
b10011010001010011010100100101001 &
16
1=
07
0/
1>
b10011111000101101000100011111010 )
b10011010001010011010100100101001 !
1"
b10011111000101101000100011111010 1
b101 *
1$
#1361
14
#1366
03
0-
04
0.
b01000101011001010110100111100001 &
1'
06
0=
1(
17
0>
b00111000100000001000100100100010 )
b01000101011001010110100111100001 !
0"
b00111000100000001000100100100010 1
b111 *
09
0$
0,
#1371
14
#1376
13
04
1.
b11000100010001001110011110001001 &
16
1=
0(
07
1>
b00100000010101011111001010001000 )
b11000100010001001110011110001001 !
b00100000010101011111001010001000 1
b001 *
1+
#1381
14
#1386
04
0.
b10011101010011111001011011000001 &
0'
06
0=
b11101100111000101101110010110010 )
b10011101010011111001011011000001 !
b11101100111000101101110010110010 1
0#
12
b100 *
19
0+
1,
#1391
14
#1396
03
04
0.
b00101000000001101101101000000111 &
15
0'
06
17
0>
b10000001010111011110101101101111 )
b00101000000001101101101000000111 !
0"
b10000001010111011110101101101111 1
02
b110 *
19
1,
#1401
14
#1406
13
b00101000100001100101101111101011 !
04
b01100011001001110000100010101010 1
b00101000100001100101101111101011 &
1#
05
b000 *
07
1/
1>
b01100011001001110000100010101010 )
#1411
14
#1416
03
04
1.
b00001000110000000100111010010001 &
16
17
0/
0>
b11110000000011000110111010110110 )
b00001000110000000100111010010001 !
1"
b11110000000011000110111010110110 1
0#
12
b100 *
#1421
14
#1426
13
04
1.
b01000100100110001010111001000100 &
16
1=
07
1>
b01100000110110101000011100101111 )
b01000100100110001010111001000100 !
0"
b01100000110110101000011100101111 1
1#
02
b001 *
1+
#1431
14
#1436
13
04
0.
b11101010001101110111011001001001 &
06
0=
07
1>
b11110010110111101100000111001010 )
b11101010001101110111011001001001 !
b11110010110111101100000111001010 1
0#
12
b100 *
0+
#1441
14
